,time,x ,y,z,la,lo,g,h
0,1500000000000000.0,-0.32104499999999997,2.318314,9.694489,10.00876,76.36559,,good
1,1500000000000000.0,-0.32104499999999997,2.318314,9.694489,10.00858,76.36504000000001,,good
2,1500000000000000.0,-0.026047000000000004,2.489594,9.803833000000001,10.008560000000001,76.36498,,good
3,1500000000000000.0,-0.236404,2.63414,9.338638000000001,10.008560000000001,76.36495,,good
4,1500000000000000.0,-0.236404,2.63414,9.338638000000001,10.008560000000001,76.36492,,good
5,1500000000000000.0,-0.236404,2.63414,9.338638000000001,10.00855,76.3649,,good
6,1500000000000000.0,-0.487778,2.602341,8.995712,10.00855,76.36489,,good
7,1500000000000000.0,-0.685425,2.5818939999999997,8.970047000000001,10.008569999999999,76.36486,,good
8,1500000000000000.0,-0.318909,2.747131,9.198563,10.0086,76.36482,,good
9,1500000000000000.0,-0.32759099999999997,2.745789,9.157103999999999,10.008610000000001,76.3648,,good
10,1500000000000000.0,-0.314423,2.769028,9.129257,10.00863,76.3648,,good
11,1500000000000000.0,-0.32800300000000004,2.786514,9.261092999999999,10.00908,76.36463,,good
12,1500000000000000.0,-0.374741,2.793427,9.202209,10.00942,76.36561,,good
13,1500000000000000.0,-0.364136,2.802963,9.191071,10.009689999999999,76.36551,,good
14,1500000000000000.0,-0.368179,2.723755,9.324478,10.01016,76.36536,,good
15,1500000000000000.0,-0.329529,2.805817,9.225021,10.0102,76.36536,,good
16,1500000000000000.0,-0.329529,2.805817,9.225021,10.01025,76.36537,,good
17,1500000000000000.0,-0.329529,2.805817,9.225021,10.01029,76.36539,,good
18,1500000000000000.0,-0.322662,2.851685,9.255432,10.01032,76.3654,,good
19,1500000000000000.0,-0.385315,2.898468,9.479797,10.01034,76.36542,,good
20,1500000000000000.0,-0.333801,2.928986,9.681778,10.01036,76.36544,,good
21,1500000000000000.0,-0.22084,2.866531,9.77037,10.01041,76.3656,,good
22,1500000000000000.0,-0.087128,2.958145,9.81134,10.01056,76.36553,,good
23,1500000000000000.0,-0.024215999999999998,3.0494380000000003,9.059952000000001,10.010010000000001,76.36397,,good
24,1500000000000000.0,-0.177032,3.2031560000000003,8.761032,10.01,76.36397,,good
25,1500000000000000.0,-0.302765,3.254517,8.596283,10.01,76.36395999999999,,good
26,1500000000000000.0,-0.302765,3.254517,8.596283,10.00999,76.36395999999999,,good
27,1500000000000000.0,-0.374695,3.289825,8.589858999999999,10.00999,76.36395,,good
28,1500000000000000.0,-0.371658,3.317825,8.743149,10.00998,76.36395,,good
29,1500000000000000.0,-0.361694,3.336899,8.993958000000001,10.00998,76.36394,,good
30,1500000000000000.0,-0.353027,3.344666,9.231796000000001,10.00997,76.36394,,good
31,1500000000000000.0,-0.409271,3.295181,9.258133,10.00997,76.36393000000001,,good
32,1500000000000000.0,-0.384689,3.2293849999999997,9.281235,10.00997,76.36392,,good
33,1500000000000000.0,-0.442535,3.270996,9.202255000000001,10.00997,76.36391,,good
34,1500000000000000.0,-0.442535,3.270996,9.202255000000001,10.009960000000001,76.36391,,good
35,1500000000000000.0,-0.474091,3.291153,9.112045,10.009960000000001,76.3639,,good
36,1500000000000000.0,-0.474091,3.291153,9.112045,10.009960000000001,76.36389,,good
37,1500000000000000.0,-0.43612700000000004,3.3207699999999996,9.231978999999999,10.009960000000001,76.36388000000001,,good
38,1500000000000000.0,-0.406281,3.319397,9.226958999999999,10.00997,76.36388000000001,,good
39,1500000000000000.0,-0.343918,3.316086,9.114929,10.00997,76.36386999999999,0.30537238165066966,good
40,1500000000000000.0,-0.4991,3.257797,9.143142999999998,10.00997,76.36386,0.29548809737310766,good
41,1500000000000000.0,-0.439163,3.222931,9.042297,10.00997,76.36385,0.2854314287093956,good
42,1500000000000000.0,-0.46562200000000004,3.317627,9.192963,10.00998,76.36385,0.26726749982539966,good
43,1500000000000000.0,-0.403183,3.328476,9.197815,10.00998,76.36384,0.2659172222253767,good
44,1500000000000000.0,-0.403183,3.328476,9.197815,10.00999,76.36384,0.26451199817740706,good
45,1500000000000000.0,-0.448334,3.331268,9.084503,10.00999,76.36383000000001,0.2632403840410331,good
46,1500000000000000.0,-0.43829300000000004,3.3328860000000002,9.079941,10.01,76.36383000000001,0.26225297327507535,good
47,1500000000000000.0,-0.43829300000000004,3.3328860000000002,9.079941,10.01,76.36381999999999,0.2607942596044147,good
48,1500000000000000.0,-0.43829300000000004,3.3328860000000002,9.079941,10.010010000000001,76.36381999999999,0.2610392757379467,good
49,1500000000000000.0,-0.40841700000000003,3.2910160000000004,8.990616000000001,10.010019999999999,76.36381,0.26239061124304625,good
50,1500000000000000.0,-0.392929,3.303604,9.039947999999999,10.01003,76.36381,0.2629912937524521,good
51,1500000000000000.0,-0.547409,3.280273,9.070343,10.01004,76.36381,0.2626989646558494,good
52,1500000000000000.0,-0.46980299999999997,3.258698,9.143829,10.01005,76.36381,0.2625500559423519,good
53,1500000000000000.0,-0.510269,3.249908,9.056061,10.010060000000001,76.36381,0.2628256240118225,good
54,1500000000000000.0,-0.510269,3.249908,9.056061,10.010069999999999,76.36381,0.2614910260453417,good
55,1500000000000000.0,-0.5343479999999999,3.245193,9.038345,10.01008,76.36381,0.2615287707472617,good
56,1500000000000000.0,-0.558136,3.216736,9.047241,10.01008,76.36381999999999,0.26140775113066017,good
57,1500000000000000.0,-0.592468,3.201645,9.055634,10.01009,76.36381999999999,0.261150465545467,good
58,1500000000000000.0,-0.69162,3.130615,9.091415,10.0101,76.36381999999999,0.26029973639030246,good
59,1500000000000000.0,-0.774933,3.0141299999999998,9.195435,10.0101,76.36383000000001,0.25398966335770623,good
60,1500000000000000.0,-0.7840729999999999,2.919754,9.135132,10.010110000000001,76.36383000000001,0.23663318702688751,good
61,1500000000000000.0,-0.977859,2.779068,8.724091,10.010110000000001,76.36384,0.21743698925664312,good
62,1500000000000000.0,-0.8952479999999999,2.251434,8.647797,10.01012,76.36384,0.192330869359794,good
63,1500000000000000.0,-0.8327180000000001,2.119949,9.261016999999999,10.01012,76.36385,0.19539867336064795,good
64,1500000000000000.0,-0.781525,2.120636,9.735031,10.01012,76.36386,0.21813277273526835,good
65,1500000000000000.0,-0.781525,2.120636,9.735031,10.01013,76.36386,0.2285184482603311,good
66,1500000000000000.0,-0.727402,2.018082,10.111725,10.01013,76.36386999999999,0.26542974644374207,good
67,1500000000000000.0,-0.727402,2.018082,10.111725,10.01013,76.36388000000001,0.29248720731740624,good
68,1500000000000000.0,-0.668808,1.9264830000000002,9.989243,10.01013,76.36389,0.3109380757196942,good
69,1500000000000000.0,-0.779602,1.806198,9.591156,10.01013,76.3639,0.3147340264306651,good
70,1500000000000000.0,-0.645706,1.862885,9.516022,10.01013,76.36391,0.3181399483352065,good
71,1500000000000000.0,-0.590332,1.9173580000000001,10.062393,10.01013,76.36392,0.3443278011376915,good
72,1500000000000000.0,0.351425,1.695572,10.353363,10.01013,76.36393000000001,0.3860476783327446,good
73,1500000000000000.0,0.643188,1.983475,10.124573,10.01012,76.36393000000001,0.40839750304184974,good
74,1500000000000000.0,0.643188,1.983475,10.124573,10.01012,76.36394,0.4283148699721039,good
75,1500000000000000.0,1.036499,2.4243770000000002,9.867096,10.01012,76.36395,0.4353771439683002,good
76,1500000000000000.0,1.149872,2.337936,9.60965,10.010110000000001,76.36395,0.4357622947772655,good
77,1500000000000000.0,1.149872,2.337936,9.60965,10.010860000000001,76.36594000000001,0.4371418004399912,good
78,1500000000000000.0,1.386536,2.5093229999999997,9.353058,10.01089,76.36603000000001,0.4365872397130425,good
79,1500000000000000.0,1.386536,2.5093229999999997,9.353058,10.010769999999999,76.36609,0.43468812656954126,good
80,1500000000000000.0,1.9351349999999998,2.843323,9.358231,10.01042,76.36627,0.43310606328624257,good
81,1500000000000000.0,2.704605,3.164413,9.631821,10.00961,76.36666,0.4314221477526469,good
82,1500000000000000.0,3.7456050000000003,4.627014,7.221039,10.00951,76.3667,0.5509296841498567,good
83,1500000000000000.0,3.428818,4.679428,7.204056,10.0094,76.36674000000001,0.6463541815207304,good
84,1500000000000000.0,3.428818,4.679428,7.204056,10.009269999999999,76.36676,0.7258978503379142,bad
85,1500000000000000.0,3.123795,4.40773,7.273911,10.009139999999999,76.36678,0.7897187473743664,bad
86,1500000000000000.0,3.123795,4.40773,7.273911,10.008989999999999,76.36678,0.8462648801285111,bad
87,1500000000000000.0,3.3576050000000004,4.555557,7.59346,10.0088,76.36676,0.8814691835672511,bad
88,1500000000000000.0,3.8974,4.610092,7.80368,10.00854,76.36671,0.9055772845442196,bad
89,1500000000000000.0,3.858704,4.495483,8.001022,10.00835,76.36669,0.9215733258740647,bad
90,1500000000000000.0,2.68071,4.41806,7.8688199999999995,10.0082,76.36666,0.9406128230468773,bad
91,1500000000000000.0,2.271347,5.06337,7.964417,10.00802,76.36666,0.9555347171870278,bad
92,1500000000000000.0,2.159973,5.185699,8.320847,10.00784,76.36667,0.9612554870158068,bad
93,1500000000000000.0,2.159973,5.185699,8.320847,10.007639999999999,76.36671,0.966813530141974,bad
94,1500000000000000.0,2.117142,5.12944,8.354263000000001,10.00746,76.36678,0.9714472942562324,bad
95,1500000000000000.0,2.4698029999999997,5.123444,8.486496,10.00731,76.36684,0.9740166261356614,bad
96,1500000000000000.0,2.680466,5.145523000000001,8.635437,10.00717,76.3669,0.974944836651508,bad
97,1500000000000000.0,2.447189,5.290665,8.185577,10.006969999999999,76.36699,0.9815668094590673,bad
98,1500000000000000.0,1.829605,5.463089,7.498108,10.00692,76.36701,1.0056377880949547,bad
99,1500000000000000.0,1.042908,5.561615,7.021057000000001,10.00685,76.36701,1.0450513411489082,bad
100,1500000000000000.0,0.790558,5.722961,6.713531,10.006739999999999,76.36706,1.094464202508465,bad
101,1500000000000000.0,1.335632,5.352798,6.630936,10.00661,76.36717,1.1444075133979308,bad
102,1500000000000000.0,1.3405,5.309966999999999,6.7797089999999995,10.00647,76.36726999999999,1.183742720717681,bad
103,1500000000000000.0,1.3405,5.309966999999999,6.7797089999999995,10.00635,76.36740999999999,1.2152997632749583,ugly
104,1500000000000000.0,0.9929959999999999,5.2639309999999995,7.061371,10.00629,76.36751,1.2238824837851126,ugly
105,1500000000000000.0,1.092804,5.0313870000000005,7.387482,10.00623,76.36768000000001,1.2202802145129727,ugly
106,1500000000000000.0,0.8138890000000001,4.7440489999999995,7.713867,10.00617,76.36782,1.1956457208119402,bad
107,1500000000000000.0,0.266937,4.509995,8.079452999999999,10.00612,76.36792,1.1637463837513593,bad
108,1500000000000000.0,0.137344,4.13002,8.453934,10.0061,76.368,1.1331441069404657,bad
109,1500000000000000.0,0.173401,3.452347,8.586791999999999,10.00606,76.36806999999999,1.1150016720940197,bad
110,1500000000000000.0,0.173401,3.452347,8.586791999999999,10.00597,76.36816999999999,1.0982401658546024,bad
111,1500000000000000.0,-0.259247,3.11557,8.909668,10.00592,76.36822,1.0643687832178754,bad
112,1500000000000000.0,-0.469696,2.071838,9.359268,10.0058,76.36831,1.024434331099344,bad
113,1500000000000000.0,-0.469696,2.071838,9.359268,10.00504,76.36906,0.9944218855217329,bad
114,1500000000000000.0,-0.469696,2.071838,9.359268,10.00442,76.36968,0.9630852440070944,bad
115,1500000000000000.0,-0.451004,1.6394959999999998,9.522339,10.00399,76.3701,0.9489409919124333,bad
116,1500000000000000.0,-0.644409,1.394836,9.691208,10.00376,76.37033000000001,0.9522159849961072,bad
117,1500000000000000.0,-0.793198,1.1522059999999998,10.089447,10.00361,76.37048,0.9736891068925002,bad
118,1500000000000000.0,-0.503143,0.727295,10.652267,10.0035,76.37058,1.0338148408109786,bad
119,1500000000000000.0,-0.503143,0.727295,10.652267,10.002989999999999,76.37108,1.089638353986674,bad
120,1500000000000000.0,-0.472733,0.726532,10.336899,10.002930000000001,76.37113000000001,1.1257848016867753,bad
121,1500000000000000.0,-1.3000639999999999,-0.132904,9.977829,10.002889999999999,76.37116,1.1378274878269254,bad
122,1500000000000000.0,-1.474197,-0.257797,9.565125,10.002839999999999,76.37118000000001,1.142620335442712,bad
123,1500000000000000.0,-1.474197,-0.257797,9.565125,10.00278,76.37120999999999,1.1438709818148207,bad
124,1500000000000000.0,-1.589401,-0.379089,9.248459,10.00271,76.37123000000001,1.1351403582093156,bad
125,1500000000000000.0,-1.7828060000000001,-0.630676,9.464066,10.00262,76.37125,1.1301830575796141,bad
126,1500000000000000.0,-1.6732029999999998,-0.594284,10.169891,10.002510000000001,76.37127,1.1425561516485876,bad
127,1500000000000000.0,-1.369171,-0.54335,10.697144,10.00234,76.37131,1.1794174653766802,bad
128,1500000000000000.0,-1.477982,-0.683319,10.580032000000001,10.00187,76.37123000000001,1.2098566408278735,ugly
129,1500000000000000.0,-1.555801,-0.734222,10.674316000000001,10.001710000000001,76.37120999999999,1.242751782871425,ugly
130,1500000000000000.0,-1.055328,-0.156052,10.015945,10.00148,76.3712,1.248628087523896,ugly
131,1500000000000000.0,-1.055328,-0.156052,10.015945,10.00136,76.3712,1.2540205443162087,ugly
132,1500000000000000.0,-1.016846,0.31004299999999996,9.300827,10.00124,76.3712,1.2522366742958702,ugly
133,1500000000000000.0,-1.016846,0.31004299999999996,9.300827,10.000760000000001,76.37114,1.2499578471055166,ugly
134,1500000000000000.0,-0.885925,0.570129,9.087173,10.00066,76.37113000000001,1.246570602619506,ugly
135,1500000000000000.0,-0.928406,0.609772,8.988525,10.00056,76.37114,1.2442591112069705,ugly
136,1500000000000000.0,-1.117294,0.9279629999999999,9.636261,10.00047,76.37115,1.2474706604395176,ugly
137,1500000000000000.0,-1.117294,0.9279629999999999,9.636261,10.00039,76.37118000000001,1.2444955379390192,ugly
138,1500000000000000.0,-0.999634,1.0637969999999999,9.698853,10.00033,76.3712,1.2235642009348024,ugly
139,1500000000000000.0,-0.862991,1.035339,9.557877000000001,10.00024,76.37125999999999,1.1788366929400729,bad
140,1500000000000000.0,-0.900711,0.861008,9.172728999999999,10.00007,76.3714,1.1108272371905257,bad
141,1500000000000000.0,-1.010086,0.8806459999999999,9.063965,9.99986,76.37156,1.029712249227707,bad
142,1500000000000000.0,-1.010086,0.8806459999999999,9.063965,9.99977,76.37163000000001,0.9482092789736433,bad
143,1500000000000000.0,-0.8499450000000001,1.101807,9.483794999999999,9.99966,76.37169,0.8536557608191374,bad
144,1500000000000000.0,-0.881516,1.219833,9.734589,9.99921,76.37183,0.7665392839085736,bad
145,1500000000000000.0,-0.722183,1.2524870000000001,9.953156,9.999,76.37191999999999,0.6923376047908488,good
146,1500000000000000.0,-1.078781,1.298416,9.690781,9.99891,76.37205,0.6272234997380822,good
147,1500000000000000.0,-0.9246059999999999,1.404572,9.484802,9.9989,76.37208000000001,0.578820743842607,good
148,1500000000000000.0,-0.787155,1.343597,9.673278999999999,9.99881,76.37232,0.5476617284343714,good
149,1500000000000000.0,-0.838974,1.243317,9.475708000000001,9.99855,76.37326999999999,0.5212184843760597,good
150,1500000000000000.0,-0.8755040000000001,1.221649,9.349808,9.99853,76.37345,0.4941013140695915,good
151,1500000000000000.0,-0.842651,1.282761,9.487564,9.9985,76.37355,0.47917867264846326,good
152,1500000000000000.0,-0.843094,1.315994,9.65387,9.9985,76.37359000000001,0.47612589659063426,good
153,1500000000000000.0,-0.804611,1.541656,9.759262,9.998510000000001,76.37385,0.47290492498752407,good
154,1500000000000000.0,-0.9580989999999999,1.174393,9.500305,9.998569999999999,76.37408,0.47071844891222475,good
155,1500000000000000.0,-0.7978970000000001,1.439255,9.651016,9.9987,76.37446,0.46979411340835564,good
156,1500000000000000.0,-0.611679,1.429306,9.702469,9.99885,76.37477,0.46977977334582677,good
157,1500000000000000.0,-0.688736,1.3690799999999999,9.613358,9.99892,76.37489000000001,0.46620505669944506,good
158,1500000000000000.0,-0.716553,1.5225520000000001,9.695129,9.99905,76.37508000000001,0.4403653334661267,good
159,1500000000000000.0,-0.760864,1.4142,9.581161,9.9991,76.37514,0.411636033095949,good
160,1500000000000000.0,-0.741653,1.474075,9.886429,9.99921,76.37528,0.3985312576272326,good
161,1500000000000000.0,-0.790222,1.451614,9.774246,9.99934,76.37541,0.39547890916119205,good
162,1500000000000000.0,-0.725906,1.4977260000000001,9.693771,10.00004,76.37608,0.3953662001758275,good
163,1500000000000000.0,-0.640396,1.527084,9.522522,10.00023,76.37625,0.39564298336682935,good
164,1500000000000000.0,-0.788651,1.621475,9.354004,10.00031,76.37634,0.3932857336173623,good
165,1500000000000000.0,-0.6296689999999999,1.646393,9.594161999999999,10.00038,76.37647,0.39227804568932884,good
166,1500000000000000.0,-0.445862,1.777466,9.568954,10.00044,76.3766,0.38323604338162165,good
167,1500000000000000.0,-0.445862,1.777466,9.568954,10.00048,76.37678000000001,0.3423483848535005,good
168,1500000000000000.0,-0.432907,1.822876,9.50853,10.0005,76.3769,0.30396131358602063,good
169,1500000000000000.0,-0.48109399999999997,1.889832,9.443405,10.00053,76.37723000000001,0.24729438234455176,good
170,1500000000000000.0,-0.473236,1.964996,9.600601,10.00053,76.37728,0.2356121170687852,good
171,1500000000000000.0,-0.473236,1.964996,9.600601,10.00055,76.37748,0.222823832645995,good
172,1500000000000000.0,-0.438705,1.99855,9.745667,10.000580000000001,76.37765999999999,0.22230361238970425,good
173,1500000000000000.0,-0.42176800000000003,2.016861,9.701111000000001,10.00061,76.37783,0.22030970084742316,good
174,1500000000000000.0,-0.425705,2.100021,9.562363000000001,10.00065,76.37799,0.20719124673857153,good
175,1500000000000000.0,-0.39964299999999997,2.122574,9.469116,10.000689999999999,76.37813,0.18600316638818717,good
176,1500000000000000.0,-0.354614,2.180344,9.421066,10.00073,76.37823,0.1872304172790815,good
177,1500000000000000.0,-0.327438,2.203827,9.638519,10.00079,76.3784,0.18725202560745885,good
178,1500000000000000.0,-0.364029,2.5096279999999997,9.763626,10.0008,76.37841999999999,0.18869128881365954,good
179,1500000000000000.0,-0.29995700000000003,2.531616,9.509323,10.00108,76.37848000000001,0.18892173926630582,good
180,1500000000000000.0,-0.054626,2.689392,9.599716,10.00123,76.37852,0.17775118175756718,good
181,1500000000000000.0,-0.054626,2.689392,9.599716,10.00132,76.37857,0.1569441270684493,good
182,1500000000000000.0,0.044724,2.773361,9.617080999999999,10.00142,76.37863,0.13153677234212896,good
183,1500000000000000.0,0.135574,2.8858639999999998,9.47345,10.00152,76.37871,0.13179280530023713,good
184,1500000000000000.0,0.11993399999999999,3.044189,9.387894000000001,10.00164,76.37881,0.13446409884209212,good
185,1500000000000000.0,0.184616,3.08577,9.320739999999999,10.0018,76.37895999999999,0.12855270012351708,good
186,1500000000000000.0,0.329361,3.310745,9.049408,10.00191,76.37904,0.15232312845672916,good
187,1500000000000000.0,0.411438,3.378937,8.84903,10.00195,76.37907,0.18953744463277522,good
188,1500000000000000.0,0.612183,3.4669190000000003,8.736694,10.00201,76.37909,0.22780130619477956,good
189,1500000000000000.0,1.484558,3.437775,8.671646,10.00206,76.3791,0.2648020329002294,good
190,1500000000000000.0,0.736481,3.824783,8.708176,10.00211,76.3791,0.29247307643090154,good
191,1500000000000000.0,0.736481,3.824783,8.708176,10.00223,76.37912,0.3175038147606361,good
192,1500000000000000.0,1.106796,3.984161,8.796005000000001,10.002310000000001,76.37914,0.3333523167427209,good
193,1500000000000000.0,0.7304689999999999,4.014664,9.353088,10.00239,76.37916,0.32981670267497576,good
194,1500000000000000.0,1.030685,4.006546,8.939803999999999,10.002510000000001,76.37921999999999,0.33890628990121796,good
195,1500000000000000.0,1.039398,4.23114,8.639236,10.00269,76.3793,0.3587448139706546,good
196,1500000000000000.0,1.118729,4.077164,8.547638000000001,10.00285,76.37939,0.3795785581083716,good
197,1500000000000000.0,1.205856,4.343796,8.596511999999999,10.0032,76.37961999999999,0.39655711440564395,good
198,1500000000000000.0,1.398468,4.432358,8.480423,10.00336,76.3797,0.41512722031159505,good
199,1500000000000000.0,1.375717,4.524261,8.281174,10.00354,76.37975,0.4436291414148277,good
200,1500000000000000.0,1.526367,4.570876999999999,7.832458,10.003680000000001,76.37977,0.48848531236747383,good
201,1500000000000000.0,1.519699,4.633224,7.585632,10.00383,76.37979,0.5453114875578235,good
202,1500000000000000.0,1.593445,4.76828,8.031952,10.00485,76.37983,0.5676974955897237,good
203,1500000000000000.0,1.905792,4.74411,7.8854679999999995,10.0052,76.37986,0.5972438639527486,good
204,1500000000000000.0,1.687943,4.599899,7.6534580000000005,10.00535,76.37985,0.6374019068620354,good
205,1500000000000000.0,1.809509,4.505875,8.372833,10.005519999999999,76.37980999999999,0.6399638580249277,good
206,1500000000000000.0,1.809509,4.505875,8.372833,10.00563,76.37978000000001,0.6416216184009964,good
207,1500000000000000.0,2.049561,4.5233,9.230483999999999,10.00576,76.37974,0.6360056813262019,good
208,1500000000000000.0,1.845718,4.488464,8.913162,10.00583,76.37971,0.6303114331131437,good
209,1500000000000000.0,1.8204189999999998,4.357346,8.40358,10.00587,76.37968000000001,0.6316104734394594,good
210,1500000000000000.0,1.791565,4.245239,8.297989,10.0059,76.37965,0.6303219703923142,good
211,1500000000000000.0,1.791565,4.245239,8.297989,10.005930000000001,76.3796,0.6272992909926619,good
212,1500000000000000.0,1.571793,4.219131,8.469086,10.00596,76.37954,0.6142633452384926,good
213,1500000000000000.0,1.696335,4.0670779999999995,8.420288000000001,10.00608,76.37913,0.6017033295214939,good
214,1500000000000000.0,1.531967,4.016586,7.723877000000001,10.00637,76.37856,0.613040410731532,good
215,1500000000000000.0,1.356659,3.762497,7.419617,10.00645,76.37846,0.6379281857700786,good
216,1500000000000000.0,1.091461,3.6436,8.317122999999999,10.00663,76.3783,0.6304330715930996,good
217,1500000000000000.0,1.200623,3.5783690000000004,9.381577,10.006860000000001,76.37816,0.6217423459992295,good
218,1500000000000000.0,1.084,3.419662,9.743408,10.00703,76.37805999999999,0.6208471811373615,good
219,1500000000000000.0,0.561371,2.8797,9.584610000000001,10.00725,76.37798000000001,0.6235327759887551,good
220,1500000000000000.0,0.561371,2.8797,9.584610000000001,10.00746,76.3781,0.622967218949368,good
221,1500000000000000.0,0.41471899999999995,2.866333,8.958069,10.007589999999999,76.3782,0.6067798606631318,good
222,1500000000000000.0,0.41471899999999995,2.866333,8.958069,10.00763,76.37835,0.5889769344360898,good
223,1500000000000000.0,0.29731799999999997,2.4389950000000002,8.656875999999999,10.007660000000001,76.37850999999999,0.5736352520276667,good
224,1500000000000000.0,-0.183426,2.129166,8.952271000000001,10.007710000000001,76.37872,0.5628930220400205,good
225,1500000000000000.0,-0.277008,2.124344,9.38623,10.00775,76.37888000000001,0.5650800628445024,good
226,1500000000000000.0,-0.914948,1.8418430000000001,9.235062,10.008189999999999,76.37969,0.5694450651271146,good
227,1500000000000000.0,-1.089935,1.245575,9.715012,10.00821,76.37971,0.5941306547155178,good
228,1500000000000000.0,-1.089935,1.245575,9.715012,10.00849,76.38025,0.6176295543823337,good
229,1500000000000000.0,-2.000717,0.610825,11.694656,10.00867,76.38065,0.7810932560910401,bad
230,1500000000000000.0,-2.000717,0.610825,11.694656,10.00885,76.38136999999999,0.9095476366046795,bad
231,1500000000000000.0,-1.629349,0.7827,10.045364,10.00886,76.3814,0.9296553507525543,bad
232,1500000000000000.0,-1.629349,0.7827,10.045364,10.00886,76.38144,0.9484483533754277,bad
233,1500000000000000.0,-1.8738400000000002,0.747192,9.623535,10.00885,76.3815,0.9528216142930309,bad
234,1500000000000000.0,-1.8291169999999999,0.6656340000000001,9.604919,10.00882,76.38154,0.9594545493233915,bad
235,1500000000000000.0,-1.8512119999999999,0.885178,9.764755000000001,10.00881,76.38156,0.9678139037584057,bad
236,1500000000000000.0,-1.7307740000000003,1.1907809999999999,9.457825,10.00848,76.38169,0.9691251547324446,bad
237,1500000000000000.0,-2.358688,0.894394,8.706589,10.008339999999999,76.38178,0.9682232841243573,bad
238,1500000000000000.0,-2.345154,1.290985,10.032715,10.008230000000001,76.38190999999999,0.9794514662993126,bad
239,1500000000000000.0,-2.345154,1.290985,10.032715,10.00806,76.38206,0.9855673706989687,bad
240,1500000000000000.0,-2.345154,1.290985,10.032715,10.00797,76.38214,0.9775228122576174,bad
241,1500000000000000.0,-2.3377689999999998,1.200272,9.922744999999999,10.0079,76.3822,0.9542522592712094,bad
242,1500000000000000.0,-2.520981,1.180756,9.409058,10.00786,76.38221999999999,0.9372575665725684,bad
243,1500000000000000.0,-2.423508,1.382172,8.939224000000001,10.00765,76.38234,0.9140894360265224,bad
244,1500000000000000.0,-2.564133,1.3745120000000002,8.996246000000001,10.0076,76.38235999999999,0.8790987849913949,bad
245,1500000000000000.0,-2.774261,1.342407,9.098206,10.00747,76.38247,0.8678908767254728,bad
246,1500000000000000.0,-2.887833,1.320618,9.231964,10.00742,76.38259000000001,0.8556388570658094,bad
247,1500000000000000.0,-2.887833,1.320618,9.231964,10.00739,76.38266,0.8556361416160808,bad
248,1500000000000000.0,-2.9122310000000002,1.389099,9.407455,10.00725,76.38296,0.8535845323295419,bad
249,1500000000000000.0,-2.972977,1.5551760000000001,9.2117,10.0072,76.38306,0.8411798468718019,bad
250,1500000000000000.0,-3.0420380000000002,1.7145080000000001,9.5121,10.007010000000001,76.38331,0.8249178906546669,bad
251,1500000000000000.0,-3.165222,1.752487,9.936676,10.00683,76.38362,0.8116425870256799,bad
252,1500000000000000.0,-3.168716,1.418808,9.330017,10.0068,76.38373,0.7977185065829623,bad
253,1500000000000000.0,-3.218445,1.659836,9.089828,10.006789999999999,76.38385,0.7831407829114156,bad
254,1500000000000000.0,-3.05452,1.9207759999999998,9.266678,10.006780000000001,76.38399,0.7331204251784487,bad
255,1500000000000000.0,-2.873398,2.058655,9.845276,10.00676,76.38415,0.6550669144550946,good
256,1500000000000000.0,-2.7908630000000003,2.1806490000000003,9.933548,10.00671,76.38444,0.6273570527346806,good
257,1500000000000000.0,-2.3596340000000002,2.6502380000000003,9.005753,10.00671,76.38453,0.6331042706378657,good
258,1500000000000000.0,-2.3596340000000002,2.6502380000000003,9.005753,10.00672,76.38457,0.6384898738755275,good
259,1500000000000000.0,-2.3596340000000002,2.6502380000000003,9.005753,10.00677,76.38471,0.644136482626292,good
260,1500000000000000.0,-1.9074099999999998,3.0032959999999997,8.549636999999999,10.006860000000001,76.38484,0.6624912846065809,good
261,1500000000000000.0,-1.9074099999999998,3.0032959999999997,8.549636999999999,10.0069,76.38493000000001,0.674197821793518,good
262,1500000000000000.0,-1.69104,3.244812,8.256592,10.00692,76.385,0.6972730794914653,good
263,1500000000000000.0,-1.493515,3.435043,8.091842999999999,10.00692,76.38505,0.7197034023023291,bad
264,1500000000000000.0,-1.271317,3.6849519999999996,8.419586,10.006910000000001,76.38508,0.734200671645698,bad
265,1500000000000000.0,-1.271317,3.6849519999999996,8.419586,10.00689,76.38521999999999,0.7520734014550569,bad
266,1500000000000000.0,-0.825867,4.121338,8.558777000000001,10.00683,76.38534,0.7639989817405135,bad
267,1500000000000000.0,-0.795395,4.1867220000000005,8.704742,10.00671,76.38551,0.7703227929946764,bad
268,1500000000000000.0,-1.082077,4.0800019999999995,9.337936000000001,10.00665,76.38559000000001,0.768479823449474,bad
269,1500000000000000.0,-1.082077,4.0800019999999995,9.337936000000001,10.00667,76.38563,0.6701336757056625,good
270,1500000000000000.0,-0.9718319999999999,4.237488,8.949997,10.00683,76.38583,0.5501217283863388,good
271,1500000000000000.0,-0.9718319999999999,4.237488,8.949997,10.007010000000001,76.38602,0.5364841968189883,good
272,1500000000000000.0,-0.9718319999999999,4.237488,8.949997,10.00735,76.38639,0.5210167259273359,good
273,1500000000000000.0,-0.800034,4.408981,8.595978,10.007639999999999,76.38665,0.5245546208378707,good
274,1500000000000000.0,-0.592804,4.4247440000000005,8.429611,10.00789,76.38687,0.5322627038234794,good
275,1500000000000000.0,-0.6778109999999999,4.427567,8.401367,10.00795,76.38693,0.5347281398970399,good
276,1500000000000000.0,-0.599075,4.458145,8.394745,10.00797,76.38698000000001,0.5430273939999384,good
277,1500000000000000.0,-0.446701,4.610030999999999,8.210617,10.00797,76.38707,0.5571816046255227,good
278,1500000000000000.0,-0.446701,4.610030999999999,8.210617,10.00799,76.38716,0.5504516749998799,good
279,1500000000000000.0,-0.287689,4.722412,8.533157000000001,10.008,76.38718,0.5303466712708674,good
280,1500000000000000.0,-0.025558,4.953964,8.482161999999999,10.00803,76.38723,0.5077351646106614,good
281,1500000000000000.0,-0.169922,4.939056,8.267380000000001,10.00812,76.38731,0.49306999377952937,good
282,1500000000000000.0,-0.13861099999999998,4.79007,8.288193,10.00855,76.3877,0.4953287942715414,good
283,1500000000000000.0,-0.059142999999999994,4.824768,8.500092,10.00906,76.38811,0.49868874443377514,good
284,1500000000000000.0,-0.16477999999999998,4.824203,8.372421000000001,10.00943,76.38856,0.5041230130407888,good
285,1500000000000000.0,-0.26326,4.860657,8.330963,10.0096,76.38882,0.5088889951171282,good
286,1500000000000000.0,-0.223572,4.87442,8.418792999999999,10.00972,76.3889,0.5085675711146453,good
287,1500000000000000.0,-0.13942000000000002,4.747406,8.407745,10.00987,76.38879,0.5076198134591436,good
288,1500000000000000.0,-0.16037,4.7896730000000005,8.441345,10.00999,76.38882,0.5002605421987513,good
289,1500000000000000.0,-0.16037,4.7896730000000005,8.441345,10.01032,76.3891,0.4973484059839998,good
290,1500000000000000.0,-0.16037,4.7896730000000005,8.441345,10.010530000000001,76.38933,0.48353503343701815,good
291,1500000000000000.0,-0.174301,4.821442,8.521835000000001,10.01017,76.39008000000001,0.44195665286044317,good
292,1500000000000000.0,-0.181107,4.826874,8.560638,10.01017,76.39009,0.42956439010191666,good
293,1500000000000000.0,-0.206573,4.818527,8.5681,10.01013,76.39024,0.4241266021449693,good
294,1500000000000000.0,-0.2099,4.790985,8.505676,10.01012,76.39041,0.4126180643728053,good
295,1500000000000000.0,-0.190338,4.763687,8.426910000000001,10.010110000000001,76.39055,0.36351907096722463,good
296,1500000000000000.0,-0.209763,4.751526,8.349319,10.01005,76.39079,0.2934266175665956,good
297,1500000000000000.0,-0.144119,4.799606,8.522202,10.01,76.39107,0.28418898800392645,good
298,1500000000000000.0,-0.16893,4.770447,8.482224,10.00998,76.39125,0.2741990628138791,good
299,1500000000000000.0,-0.16893,4.770447,8.482224,10.00998,76.39137,0.26316436541990357,good
300,1500000000000000.0,-0.181839,4.764130000000001,8.410675,10.00998,76.39157,0.2636336159166472,good
301,1500000000000000.0,-0.181839,4.764130000000001,8.410675,10.009960000000001,76.3918,0.26405515841321847,good
302,1500000000000000.0,-0.15657000000000001,4.755142,8.505614999999999,10.00998,76.39208,0.26085243591574253,good
303,1500000000000000.0,-0.15657000000000001,4.755142,8.505614999999999,10.00998,76.39217,0.2516484526463443,good
304,1500000000000000.0,-0.094376,4.772995,8.781082000000001,10.00998,76.39224,0.2541995791573847,good
305,1500000000000000.0,-0.13707,4.747971,8.665833000000001,10.00995,76.39231,0.25430861230441726,good
306,1500000000000000.0,-0.210373,4.776657,8.62294,10.009910000000001,76.39249000000001,0.25462321144078665,good
307,1500000000000000.0,-0.168793,4.758483999999999,8.572891,10.009830000000001,76.39288,0.2533258205333314,good
308,1500000000000000.0,-0.20817600000000003,4.746551999999999,8.471893,10.010580000000001,76.3935,0.21788373490607918,good
309,1500000000000000.0,-0.195969,4.732880000000001,8.38916,10.010819999999999,76.39376999999999,0.17345374414788664,good
310,1500000000000000.0,-0.173599,4.720337000000001,8.429504,10.01092,76.39395,0.15715120536814603,good
311,1500000000000000.0,-0.191498,4.723618,8.592499,10.01102,76.39424,0.13892190387524558,good
312,1500000000000000.0,-0.186203,4.664566000000001,8.623001,10.01103,76.39451,0.11816666186122778,good
313,1500000000000000.0,-0.260773,4.703873000000001,8.595794999999999,10.01107,76.39479,0.11816143286876954,good
314,1500000000000000.0,-0.264816,4.702376999999999,8.485214,10.01098,76.39563000000001,0.11807105360437083,good
315,1500000000000000.0,-0.22534200000000001,4.705078,8.554916,10.01104,76.39568,0.11842488620136285,good
316,1500000000000000.0,-0.24588000000000002,4.7099910000000005,8.525955,10.011280000000001,76.39581,0.11811983208718876,good
317,1500000000000000.0,-0.24588000000000002,4.7099910000000005,8.525955,10.01132,76.39589000000001,0.11045282265599773,good
318,1500000000000000.0,-0.298645,4.680695,8.376663,10.01132,76.39596999999999,0.10290857407680262,good
319,1500000000000000.0,-0.298645,4.680695,8.376663,10.01131,76.39618,0.1039901032651065,good
320,1500000000000000.0,-0.286118,4.701233,8.374603,10.01123,76.3965,0.10533685600705495,good
321,1500000000000000.0,-0.19261199999999998,4.733093,8.507721,10.01119,76.39665,0.09971059019632905,good
322,1500000000000000.0,-0.149475,4.730637000000001,8.603287,10.01108,76.39711,0.09621750116342367,good
323,1500000000000000.0,-0.231827,4.734314,8.456436,10.01107,76.39726999999999,0.09637122038727879,good
324,1500000000000000.0,-0.226517,4.742767,8.578613,10.01107,76.39744,0.09537849192521465,good
325,1500000000000000.0,-0.274399,4.718033,8.587891,10.01112,76.39766999999999,0.09258287581355207,good
326,1500000000000000.0,-0.277527,4.680893,8.518768,10.01117,76.39795,0.09160896535690882,good
327,1500000000000000.0,-0.269196,4.679901,8.480483999999999,10.01118,76.39806,0.09034170458509652,good
328,1500000000000000.0,-0.269196,4.679901,8.480483999999999,10.01116,76.39817,0.08982465015022002,good
329,1500000000000000.0,-0.269196,4.679901,8.480483999999999,10.01114,76.39831,0.08929360580191328,good
330,1500000000000000.0,-0.269196,4.679901,8.480483999999999,10.01113,76.39841,0.08874832040571262,good
331,1500000000000000.0,-0.26156599999999997,4.688934,8.458328,10.01113,76.39851,0.08909438966923303,good
332,1500000000000000.0,-0.23262,4.7256160000000005,8.482529,10.01114,76.39859,0.08877067348810944,good
333,1500000000000000.0,-0.18896500000000002,4.752669999999999,8.602447999999999,10.0112,76.39875,0.08954720682479302,good
334,1500000000000000.0,-0.25618,4.723969,8.531479,10.01123,76.39887,0.08962964978328415,good
335,1500000000000000.0,-0.25618,4.723969,8.531479,10.01125,76.399,0.0887322241560883,good
336,1500000000000000.0,-0.268631,4.674347,8.450058,10.01127,76.39915,0.0854119991042345,good
337,1500000000000000.0,-0.303467,4.711594,8.359802,10.01127,76.39916,0.08875149877366342,good
338,1500000000000000.0,-0.303467,4.711594,8.359802,10.01127,76.39917,0.09175189779790818,good
339,1500000000000000.0,-0.254211,4.934067,8.207428,10.011289999999999,76.39956,0.1031394409288108,good
340,1500000000000000.0,-0.583817,4.7000269999999995,8.969711,10.011280000000001,76.39974000000001,0.12618281870520032,good
341,1500000000000000.0,-1.478165,4.272522,10.050476,10.01123,76.39990999999999,0.2730444189397053,good
342,1500000000000000.0,-1.411194,3.893326,8.566605000000001,10.01111,76.40014000000001,0.27293842865795787,good
343,1500000000000000.0,-0.372238,4.218765,7.614899,10.01105,76.40047,0.31080968645601414,good
344,1500000000000000.0,-0.046768000000000004,4.593567,7.926498,10.01103,76.4008,0.3224795001687253,good
345,1500000000000000.0,-0.47740200000000005,4.639465,8.392883,10.01103,76.40094,0.32202281184220993,good
346,1500000000000000.0,-0.167328,4.84079,8.549255,10.01114,76.40114,0.3215407553139358,good
347,1500000000000000.0,0.266876,4.9859919999999995,8.629074000000001,10.011239999999999,76.40134,0.3219759615605811,good
348,1500000000000000.0,0.266876,4.9859919999999995,8.629074000000001,10.01135,76.40146999999999,0.32252672982032776,good
349,1500000000000000.0,0.266876,4.9859919999999995,8.629074000000001,10.01159,76.40172,0.3224830085263761,good
350,1500000000000000.0,0.505463,4.999329,8.660217,10.01177,76.40189000000001,0.322988337517688,good
351,1500000000000000.0,0.257797,4.926758,8.639557,10.012030000000001,76.40201,0.3233440272327863,good
352,1500000000000000.0,-0.036163,4.878448000000001,8.556975999999999,10.01217,76.40204,0.32298013944311965,good
353,1500000000000000.0,-0.089935,4.786606,8.597351,10.01228,76.40203000000001,0.3229896327410757,good
354,1500000000000000.0,-0.021667,4.763062000000001,8.712738,10.01235,76.402,0.32436650458240074,good
355,1500000000000000.0,-0.052811000000000004,4.692169,8.506851,10.01254,76.40194,0.3243434953664906,good
356,1500000000000000.0,0.136292,4.688782,8.355331,10.01267,76.40186,0.3254403132155178,good
357,1500000000000000.0,0.30540500000000004,4.825851,8.169189,10.01276,76.40179,0.3301269320208154,good
358,1500000000000000.0,0.20665,4.8262480000000005,7.626144,10.01286,76.4017,0.3581030195542111,good
359,1500000000000000.0,0.144379,4.758483999999999,7.246948,10.01292,76.4016,0.40846334183553906,good
360,1500000000000000.0,0.565048,4.918579,7.3040009999999995,10.01302,76.40145,0.44766857601391197,good
361,1500000000000000.0,1.1083370000000001,5.051819,7.879410000000001,10.013160000000001,76.40129,0.45607736250890146,good
362,1500000000000000.0,1.528961,5.007537999999999,9.202316,10.01325,76.40120999999999,0.47176253874750684,good
363,1500000000000000.0,1.16098,4.873154,9.700821000000001,10.0134,76.40113000000001,0.5123884650760049,good
364,1500000000000000.0,0.734528,4.703796,9.449875,10.01351,76.40106999999999,0.5352357040220383,good
365,1500000000000000.0,0.174683,4.510742,9.148819,10.0137,76.40103,0.5451380854893393,good
366,1500000000000000.0,0.174683,4.510742,9.148819,10.01372,76.40103,0.554611978725292,good
367,1500000000000000.0,-0.14679,4.131058,8.352615,10.013910000000001,76.40101999999999,0.5552090755996661,good
368,1500000000000000.0,-0.14679,4.131058,8.352615,10.01408,76.40100000000001,0.5557866732439283,good
369,1500000000000000.0,-0.295242,4.043503,8.391281,10.014330000000001,76.40099000000001,0.5560985869808264,good
370,1500000000000000.0,-0.2836,4.061539,8.536194,10.0145,76.40101,0.5560910377827213,good
371,1500000000000000.0,-0.353714,4.054596,8.578842,10.0148,76.40108000000001,0.5561194009183684,good
372,1500000000000000.0,-0.259445,4.08284,8.788772999999999,10.01482,76.40108000000001,0.5577666843147927,good
373,1500000000000000.0,-0.18223599999999998,4.14032,8.905028999999999,10.01525,76.40118000000001,0.560919677588392,good
374,1500000000000000.0,-0.06633,4.212845,8.7379,10.01533,76.40120999999999,0.5618803989844093,good
375,1500000000000000.0,0.15596,4.345505,8.59024,10.01554,76.40126,0.5619467806961692,good
376,,,,,10.01665,76.40151,,good
