28610733696516,-9.277747,1.008072,-3.012901
28610928642805,-9.276565,1.005097,-3.017535
28611123558576,-9.281220,1.016600,-2.999311
28611318474348,-9.277640,1.029489,-3.005981
28611513420637,-9.273329,1.044679,-3.014034
28611708305891,-9.275189,1.030361,-3.013239
28611903252180,-9.277164,1.015435,-3.012228
28612098198469,-9.280904,1.020819,-2.998856
28612293083723,-9.275245,1.027986,-3.013881
28612488030012,-9.267885,1.033378,-3.034605
28612682945783,-9.268482,1.039879,-3.030555
28612877861555,-9.276470,1.036858,-3.007058
28613072807844,-9.277605,1.039674,-3.002585
28613267723615,-9.274752,1.038254,-3.011876
28613462669905,-9.273508,1.019052,-3.022244
28613657555158,-9.273431,1.030544,-3.018583
28613852501448,-9.275074,1.024500,-3.015593
28614047417219,-9.279518,1.040298,-2.996449
28614242332990,-9.281659,1.031514,-2.992853
28614437279280,-9.283197,1.031637,-2.988036
28614632195051,-9.279955,1.008479,-3.005960
28614827110823,-9.301008,0.983634,-2.948574
28615022026594,-9.304796,0.978641,-2.938267
28615216972883,-9.307427,0.968673,-2.933234
28615411888655,-9.309889,0.956981,-2.929259
28615606804426,-9.334957,0.922671,-2.859658
28615801750715,-9.345589,0.912176,-2.828125
28615996635969,-9.357098,0.882069,-2.799477
28616191582258,-9.365094,0.848619,-2.783031
28616386528547,-9.354529,0.882184,-2.808008
28616581413801,-9.344374,0.936245,-2.824272
28616776360090,-9.342833,0.936451,-2.829295
28616971306379,-9.339314,0.895192,-2.854164
28617166191633,-9.343797,0.870202,-2.847206
28617361137922,-9.339192,0.895707,-2.854396
28617556053694,-9.342866,0.881337,-2.846838
28617750969465,-9.339389,0.854868,-2.866253
28617945915754,-9.337405,0.843875,-2.875958
28618140831526,-9.336242,0.831231,-2.883405
28618335777815,-9.335423,0.802552,-2.894163
28618530979015,-9.323504,0.784898,-2.937104
28618725925304,-9.304409,0.753036,-3.005213
28618920871593,-9.304938,0.774503,-2.998108
28619115756847,-9.302481,0.761720,-3.008990
28619310703136,-9.301108,0.756983,-3.014421
28619505649425,-9.302224,0.764909,-3.008976
28619700534679,-9.294066,0.754575,-3.036667
28619895480968,-9.287555,0.712361,-3.066637
28620090396739,-9.295311,0.700010,-3.045912
28620285312511,-9.297802,0.721967,-3.033158
28620480258800,-9.286260,0.744979,-3.062805
28620675174571,-9.285859,0.730379,-3.067531
28620870090343,-9.286036,0.745818,-3.063278
28621065006114,-9.280972,0.754129,-3.076562
28621259952403,-9.276134,0.745427,-3.093231
28621454868175,-9.269501,0.761951,-3.109047
28621649783946,-9.273702,0.756655,-3.097791
28621844730235,-9.277815,0.754695,-3.085931
28622039646007,-9.282198,0.793585,-3.062907
28622234561778,-9.288622,0.800938,-3.041444
28622429508067,-9.295606,0.829319,-3.012361
28622624423839,-9.307893,0.856555,-2.966450
28622819339610,-9.312216,0.890789,-2.942706
28623014285899,-9.319786,0.892835,-2.918018
28623209201671,-9.327476,0.878760,-2.897649
28623404117442,-9.342205,0.872531,-2.851716
28623599033214,-9.352403,0.871962,-2.818265
28623793979503,-9.363129,0.845880,-2.790466
28623988895274,-9.370234,0.840108,-2.768269
28624183811046,-9.380037,0.844624,-2.733478
28624378757335,-9.393529,0.831881,-2.690721
28624573673106,-9.401812,0.787940,-2.674971
28624768588878,-9.411939,0.772221,-2.643761
28624963535167,-9.420225,0.759389,-2.617839
28625158450938,-9.420012,0.793691,-2.608407
28625353366710,-9.432274,0.829655,-2.552307
28625548312999,-9.447894,0.783723,-2.508675
28625743198253,-9.438470,0.821988,-2.531800
28625938144542,-9.422469,0.919880,-2.557594
28626133090831,-9.413538,1.017923,-2.553339
28626327976085,-9.384620,1.123922,-2.614591
28626522922374,-9.356727,1.239096,-2.662087
28626717838145,-9.361238,1.260133,-2.636224
28626912784435,-9.369850,1.258526,-2.606224
28627107700206,-9.366262,1.245329,-2.625392
28627302615978,-9.358152,1.214456,-2.668421
28627497562267,-9.360425,1.148672,-2.689493
28627692447520,-9.365129,1.079135,-2.701890
28627887393810,-9.359014,0.964820,-2.765570
28628082340099,-9.350602,0.874428,-2.823472
28628277225353,-9.347363,0.827840,-2.848132
28628471829311,-9.332066,0.809020,-2.903174
28628666775600,-9.316333,0.784550,-2.959866
28628861660854,-9.307368,0.766461,-2.992630
28629056607143,-9.301633,0.732895,-3.018752
28629251522914,-9.290365,0.743712,-3.050638
28629446438686,-9.281391,0.745276,-3.077455
28629641384975,-9.274582,0.750220,-3.096725
28629836300746,-9.282842,0.766702,-3.067803
28630031216518,-9.283362,0.770488,-3.065274
28630226132289,-9.283013,0.798854,-3.059065
28630421078578,-9.284257,0.783421,-3.059284
28630615963832,-9.283334,0.888501,-3.033257
28630810910121,-9.274422,0.893238,-3.059023
28631005856410,-9.264398,0.896647,-3.088257
28631200772182,-9.254394,0.917801,-3.111948
28631395687953,-9.241806,0.929730,-3.145630
28631590634242,-9.228225,0.971098,-3.172890
28631785550014,-9.213902,0.994393,-3.207114
28631980465785,-9.198735,0.986203,-3.252853
28632175381557,-9.176232,0.982192,-3.316994
28632370327846,-9.158722,0.963312,-3.370492
28632565243617,-9.132163,0.958095,-3.443259
28632760159389,-9.112547,0.933592,-3.501469
28632955105678,-9.100746,0.818569,-3.560442
28633150021449,-9.081027,0.733539,-3.628670
28633344937221,-9.071083,0.702145,-3.659621
28633539883510,-9.068591,0.664402,-3.672821
28633734768764,-9.106941,0.578357,-3.591588
28633929715053,-9.128858,0.511559,-3.545794
28634124661342,-9.095127,0.484088,-3.635203
28634319546596,-9.060952,0.485970,-3.719322
28634514492885,-9.064905,0.491472,-3.708953
28634709408656,-9.089128,0.452007,-3.654291
28634904324428,-9.112149,0.403697,-3.602242
28635099270717,-9.159225,0.416189,-3.479336
28635294186488,-9.172726,0.449916,-3.439340
28635489102260,-9.144539,0.464762,-3.511665
28635684048549,-9.122775,0.491470,-3.564242
28635878964320,-9.109058,0.506505,-3.597066
28636073910609,-9.106071,0.541655,-3.599510
28636268795863,-9.087295,0.541302,-3.646706
28636463742152,-9.086061,0.524209,-3.652270
28636658688441,-9.097755,0.520394,-3.623593
28636853573695,-9.097112,0.537888,-3.622653
28637048519984,-9.079210,0.528132,-3.668706
28637243435756,-9.082284,0.556822,-3.656837
28637438351527,-9.103179,0.566278,-3.603033
28637633297816,-9.139993,0.592910,-3.504195
28637828213588,-9.183651,0.577343,-3.390813
28638023129359,-9.215286,0.709944,-3.277938
28638218075648,-9.185102,0.678196,-3.368135
28638413788165,-9.133284,0.697317,-3.502466
28638608703936,-9.139822,0.768907,-3.470275
28638803619708,-9.151276,0.757579,-3.442471
28638998565997,-9.183959,0.750601,-3.355873
28639193481768,-9.202666,0.805262,-3.291332
28639388397540,-9.195541,0.860196,-3.297340
28639583343829,-9.215636,0.769618,-3.263448
28639778259600,-9.228356,0.672731,-3.248885
28639973175372,-9.217737,0.698716,-3.273454
28640168121661,-9.214802,0.774841,-3.264571
28640363037433,-9.253276,0.756453,-3.158329
28640557953204,-9.221781,0.756182,-3.249206
28640752899493,-9.195168,0.838905,-3.303863
28640947815265,-9.226465,0.864482,-3.208643
28641142731036,-9.245852,0.775381,-3.175434
28641337677325,-9.229851,0.794537,-3.216977
28641532593097,-9.221421,0.809701,-3.237309
28641727508868,-9.218092,0.837381,-3.239750
28641922455157,-9.243409,0.752544,-3.188016
28642117370929,-9.253102,0.572540,-3.197293
28642312286700,-9.189238,0.558611,-3.378797
28642507232989,-9.118355,0.593889,-3.559957
28642702148761,-9.093076,0.524882,-3.634674
28642897064532,-9.094207,0.538554,-3.629843
28643092010821,-9.058026,0.711780,-3.689975
28643286926593,-9.068334,0.679966,-3.670608
28643481842364,-9.181731,0.668785,-3.379191
28643676788653,-9.220883,0.673379,-3.269902
28643871704425,-9.226816,0.663706,-3.255112
28644066620196,-9.225826,0.711405,-3.247834
28644261566485,-9.205750,0.813201,-3.280739
28644456482257,-9.201136,0.846899,-3.285157
28644651428546,-9.209879,0.838229,-3.262802
28644846344317,-9.185061,0.905455,-3.314390
28645041290606,-9.127078,0.879392,-3.477570
28645236206378,-9.144372,0.866429,-3.435133
28645431122149,-9.206105,0.784244,-3.286788
28645626068438,-9.162848,0.765506,-3.409782
28645820984210,-9.146899,0.763685,-3.452739
28646015899981,-9.170401,0.776181,-3.386985
28646210846270,-9.172499,0.747577,-3.387742
28646405792559,-9.183076,0.698937,-3.369420
28646600677813,-9.182451,0.667962,-3.377396
28646795624102,-9.118368,0.662387,-3.547816
28646990570392,-9.080426,0.656378,-3.644918
28647185455645,-9.102574,0.678773,-3.585080
28647380401934,-9.076146,0.700874,-3.647290
28647575348224,-8.991047,0.735045,-3.845929
28647770263995,-9.017341,0.679141,-3.794300
28647965179767,-9.039830,0.605738,-3.752989
28648160126056,-9.019938,0.530441,-3.811788
28648355041827,-9.027636,0.437616,-3.805348
28648549223392,-9.058661,0.423858,-3.732478
28648744139164,-9.064589,0.515418,-3.706478
28648939054935,-9.088238,0.589817,-3.636816
28649134001224,-9.098138,0.595333,-3.611074
28649328947513,-9.100492,0.727471,-3.580815
28649523863285,-9.079077,0.804400,-3.618519
28649718779056,-9.071079,0.904703,-3.614887
28649913725345,-9.064464,1.139367,-3.564789
28650108671634,-9.076221,1.300992,-3.478508
28650303556888,-9.071478,1.313298,-3.486247
28650498503177,-9.053862,1.366056,-3.511676
28650693449466,-9.025798,1.325385,-3.598432
28650888365238,-9.069796,1.245836,-3.515266
28651083281009,-9.128985,1.098832,-3.409485
28651278227298,-9.113326,0.980244,-3.486659
28651473143070,-9.085996,0.937703,-3.568722
28651668089359,-9.060538,0.888842,-3.645133
28651863035648,-8.966607,0.845063,-3.880236
28652057920902,-8.935054,0.708437,-3.979108
28652252867191,-8.964968,0.830617,-3.887134
28652447813480,-8.903928,0.940321,-4.000780
28652642729251,-8.862289,1.027681,-4.071127
28652837645023,-8.865397,0.982368,-4.075545
28653032591312,-8.888988,0.810411,-4.061961
28653227507084,-8.813871,0.645507,-4.250810
28653422453373,-8.736994,0.619491,-4.410391
28653617399662,-8.640120,0.586049,-4.601657
28653812315433,-8.630100,0.633959,-4.614092
28654007231205,-8.631780,0.630080,-4.611480
28654592009037,-8.635041,0.676542,-4.598777
28654786955326,-8.560464,0.720428,-4.729676
28654981901615,-8.574942,0.715349,-4.704149
28654981901615,-8.574942,0.715349,-4.704149
28654981901615,-8.574942,0.715349,-4.704149
28655176817386,-8.630280,0.693014,-4.605254
28655371763675,-8.621211,0.666353,-4.626129
28655566679447,-8.531150,0.819537,-4.766363
28655761595218,-8.533239,0.768941,-4.771052
28655956541507,-8.596414,0.793810,-4.652088
28656151487796,-8.637809,0.938227,-4.547348
28656346403568,-8.677360,0.969091,-4.464827
28656541319339,-8.716944,0.952444,-4.390687
28656736265628,-8.705856,0.915259,-4.420493
28656931181400,-8.614291,0.880305,-4.603198
28657126127689,-8.690290,0.700202,-4.489874
28657321073978,-8.831510,0.736676,-4.199062
28657515989750,-8.810590,0.729743,-4.243980
28657710905521,-8.794930,0.545949,-4.303664
28657905851810,-8.767550,0.373349,-4.377334
28658100798099,-8.786968,0.295115,-4.344248
28658295713871,-8.828732,0.278899,-4.259824
28658490616041,-8.910286,0.373943,-4.078892
28658685531812,-8.968074,0.589133,-3.923894
28658880447584,-8.914094,0.780076,-4.012578
28659075393873,-8.844033,0.888241,-4.143003
28659270340162,-8.864900,0.869245,-4.102239
28659465255933,-8.900682,0.746889,-4.048504
28659660171705,-8.838198,0.610646,-4.205205
28659855117994,-8.764742,0.704201,-4.342093
28660050033765,-8.784995,0.827394,-4.278979
28660244980054,-8.836820,0.831896,-4.170006
28660439926343,-8.788989,0.768165,-4.281822
28660634811597,-8.859559,0.655795,-4.153135
28660829757886,-8.945421,0.526130,-3.984095
28661024704175,-8.880083,0.595768,-4.118200
28661219619947,-8.913716,0.533814,-4.053527
28661414566236,-8.985112,0.552351,-3.890124
28661609482007,-8.975751,0.547237,-3.912391
28661804397779,-8.976048,0.685092,-3.889933
28661999344068,-8.865398,0.676475,-4.137327
28662194259840,-8.807131,0.780653,-4.242100
28662389206129,-8.822704,0.796505,-4.206645
28662584121900,-8.773669,0.830386,-4.301579
28662779068189,-8.841490,0.904454,-4.144926
28662974014478,-8.923820,0.935110,-3.957448
28663168899732,-8.912238,0.849951,-4.002496
28663363846021,-8.890864,0.760508,-4.067499
28663558792310,-8.846277,0.600486,-4.189652
28663753708082,-8.801030,0.565763,-4.288609
28663948654371,-8.803011,0.449877,-4.298254
28664143570142,-8.851463,0.406465,-4.201995
28664338485914,-8.934438,0.305338,-4.031500
28664533432203,-8.825747,0.120527,-4.273411
28664728378492,-8.738673,0.147408,-4.447949
28664923263746,-8.683668,0.171523,-4.553556
28665118210035,-8.750902,0.211469,-4.421240
28665313156324,-8.795411,0.301648,-4.326678
28665508072095,-8.854108,0.362728,-4.200428
28665703018384,-8.890541,0.267486,-4.130026
28665897934156,-8.869148,0.098169,-4.183176
28666092849927,-8.883622,0.014578,-4.153483
28666287796216,-8.932358,-0.135995,-4.045351
28666482742506,-8.894451,-0.307026,-4.118840
28666677627759,-8.817271,-0.403562,-4.273552
28666872574049,-8.819387,-0.255938,-4.280571
28667067520338,-8.862947,-0.121043,-4.195699
28667262466627,-8.841367,0.058895,-4.242305
28667457351881,-8.822482,0.197855,-4.277271
28667652298170,-8.925445,0.254409,-4.054885
28667847244459,-9.040748,0.235189,-3.792092
28668042160230,-9.106576,0.201359,-3.633195
28668237076002,-9.140170,0.228624,-3.546183
28668432013596,-9.187775,0.295531,-3.415824
28668626929367,-9.239388,0.294202,-3.273767
28668821875656,-9.273434,0.452520,-3.157377
28669016791428,-9.266842,0.565720,-3.158480
28669211707199,-9.287575,0.550157,-3.099787
28669406653488,-9.359531,0.417524,-2.897454
28669601599777,-9.420935,0.443072,-2.687016
28669796485031,-9.410979,0.375644,-2.731806
28669991431320,-9.405784,0.204428,-2.767638
28670186377609,-9.427866,0.239941,-2.688525
28670381293381,-9.415745,0.371649,-2.715880
28670576209152,-9.387492,0.325100,-2.817744
28670771155441,-9.424561,0.321521,-2.691592
28670966071213,-9.440808,0.475482,-2.610638
28671161017502,-9.431359,0.503372,-2.639408
28671355933273,-9.441611,0.498436,-2.603446
28671550879562,-9.463930,0.504708,-2.519857
28671745795334,-9.498923,0.159058,-2.432190
28671940741623,-9.515131,-0.019456,-2.373247
28672135657395,-9.484975,0.122205,-2.488111
28672330573166,-9.464673,0.283598,-2.551455
28672525519455,-9.378726,0.144147,-2.861662
28672720465744,-9.369801,0.125318,-2.891632
28672915381516,-9.384677,0.338488,-2.825535
28673110297287,-9.391148,0.393108,-2.796817
28673305243576,-9.399528,0.373614,-2.771222
28673500159348,-9.426308,0.409208,-2.673513
28673695105637,-9.406693,0.555571,-2.715853
28673890021408,-9.398133,0.640763,-2.726699
28674084937180,-9.384804,0.602086,-2.780890
28674279883469,-9.363194,0.629609,-2.846854
28674474829758,-9.350963,0.698824,-2.870805
28674669745529,-9.317458,0.739181,-2.967988
28674864661301,-9.296145,0.708336,-3.041436
28675059607590,-9.346128,0.743463,-2.875334
28675254523361,-9.378260,0.720480,-2.774807
28675449469650,-9.282973,0.744869,-3.072780
28675644385422,-9.168040,0.814093,-3.384477
28675839331711,-9.248889,0.824183,-3.154227
28676034247482,-9.249834,0.838021,-3.147804
28676229193771,-9.194184,0.907945,-3.288311
28676424109543,-9.240312,0.886009,-3.162596
28676619025314,-9.282696,0.896644,-3.032818
28676813971604,-9.270386,0.895675,-3.070519
28677008917893,-9.273744,0.891936,-3.061458
28677203803146,-9.279507,0.894671,-3.043141
28677398749436,-9.271278,0.920971,-3.060328
28677593695725,-9.253064,0.967331,-3.100880
28677788611496,-9.261367,1.023305,-3.057825
28677983527268,-9.279178,1.079980,-2.983435
28678178473557,-9.265293,1.167972,-2.993421
28678373389328,-9.253035,1.323272,-2.966596
28678568335812,-9.249847,1.372814,-2.953995
28678763251584,-9.233827,1.425174,-2.979213
28678958167355,-9.185978,1.504501,-3.086208
28679153113644,-9.140158,1.560191,-3.192759
28679348059933,-9.158725,1.528052,-3.154868
28679542945187,-9.106098,1.655003,-3.241965
28679737891476,-9.015307,1.836388,-3.394453
28679932837765,-8.949943,1.972606,-3.489662
28680127753537,-8.871727,1.959333,-3.691054
28680322669308,-8.841854,1.984032,-3.749082
28680517615597,-8.913268,1.935650,-3.602404
28680712561886,-8.991763,1.927015,-3.406640
28680907477658,-8.976347,1.893161,-3.465766
28681102393429,-8.893008,1.802318,-3.719736
28681297339718,-8.843265,1.689039,-3.887698
28681492255490,-8.802351,1.639817,-4.000000
28681687201779,-8.754352,1.641565,-4.103290
28681882117550,-8.771852,1.530084,-4.108998
28682077033322,-8.753339,1.532270,-4.147480
28682271979611,-8.791038,1.409826,-4.111014
28682466895382,-8.864319,1.388027,-3.958236
28682661811154,-8.904712,1.398623,-3.862688
28682856757443,-8.898306,1.296548,-3.912735
28683051703732,-8.840337,1.159787,-4.083348
28683246588986,-8.854174,1.100604,-4.069726
28683441535275,-8.842077,1.189765,-4.070935
28683636481564,-8.777278,1.397527,-4.144478
28683831366818,-8.808106,1.485069,-4.047497
28684026313107,-8.865620,1.403754,-3.949765
28684221259396,-8.853503,1.308714,-4.009130
28684416175168,-8.900440,1.247815,-3.923709
28684611090939,-9.021212,1.100789,-3.684613
28684806037228,-9.000381,0.969446,-3.771430
28685000983517,-8.956225,1.144883,-3.826962
28685195899289,-8.950725,1.112070,-3.849442
28685390815060,-8.960956,1.157620,-3.812030
28685585761349,-8.977867,1.239916,-3.745784
28685780677121,-9.037600,1.190868,-3.615802
28685975592892,-9.020103,1.373035,-3.594846
28686170539181,-8.990269,1.363833,-3.672249
28686365454953,-8.963871,1.346506,-3.742501
28686560401242,-8.978549,1.458363,-3.664590
28686755317013,-8.926974,1.604182,-3.729090
28686950232785,-8.922455,1.666547,-3.712519
28687145179074,-8.990234,1.641924,-3.556709
28687340125363,-8.961508,1.416454,-3.722288
28687535010617,-8.888656,1.428396,-3.888684
28687729956906,-8.942441,1.187379,-3.846203
28687924903195,-8.945473,1.466909,-3.741267
28688119818966,-8.924881,1.421446,-3.807411
28688314734738,-8.936450,1.539111,-3.733816
28688509687513,-8.838555,1.448947,-3.993855
28688704603285,-8.766580,1.586877,-4.098695
28688899549574,-8.828216,1.630630,-3.946394
28689094465345,-8.893125,1.560289,-3.827300
28689289411634,-8.929175,1.599148,-3.725981
28689484327406,-9.073602,1.499349,-3.404717
28689679273695,-9.026907,1.524232,-3.515974
28689874189466,-8.996824,1.265401,-3.691381
28690069105238,-9.088990,1.140400,-3.501444
28690264051527,-9.117880,1.067535,-3.448917
28690458997816,-9.066970,0.821051,-3.645039
28690653883070,-9.106886,0.684864,-3.572951
28690848829359,-9.102938,0.616058,-3.595467
28691043775648,-9.100459,0.647092,-3.596289
28691238691419,-9.143091,0.590525,-3.496506
28691433607191,-9.138943,0.548975,-3.514078
28691628553480,-9.169340,0.663068,-3.413785
28691823469251,-9.186599,0.672687,-3.365154
28692018415540,-9.157401,0.572874,-3.461819
28692213331312,-9.151750,0.438294,-3.496249
28692408247083,-9.240186,0.512214,-3.244530
28692603193372,-9.200500,0.563478,-3.347190
28692798139661,-9.194835,0.716139,-3.333546
28692993024915,-9.255654,0.696927,-3.165050
28693187971204,-9.181060,0.716003,-3.371328
28693382917493,-9.173435,0.644732,-3.406287
28693577863783,-9.201466,0.512560,-3.352712
28693772749036,-9.186736,0.503033,-3.394295
28693967695326,-9.174074,0.489049,-3.430389
28694162641615,-9.176439,0.422950,-3.432849
28694357557386,-9.190511,0.338543,-3.404450
28694552503675,-9.212769,0.301436,-3.347301
28694747419447,-9.175753,0.396285,-3.437865
28694942335218,-9.174779,0.488173,-3.428629
28695137281507,-9.228058,0.630254,-3.258238
28695332227796,-9.272921,0.741176,-3.103868
28695527113050,-9.326502,0.694963,-2.950218
28695722059339,-9.332678,0.709249,-2.927195
28695917005628,-9.287145,0.709106,-3.068632
28696111921400,-9.330729,0.670897,-2.942414
28696306837171,-9.400504,0.702335,-2.703262
28696501783460,-9.373023,0.810741,-2.767580
28696696699232,-9.383205,0.796286,-2.737110
28696891645521,-9.467084,0.686598,-2.464406
28697086561292,-9.481561,0.679001,-2.410260
28697281477064,-9.481907,0.581542,-2.434260
28697476423353,-9.496644,0.505932,-2.393365
28697671369642,-9.507084,0.418151,-2.368733
28697866285413,-9.507221,0.381721,-2.374327
28698061201185,-9.487254,0.474961,-2.436556
28698256147474,-9.506286,0.509393,-2.354024
28698451115902,-9.536623,0.582455,-2.209970
28698646031674,-9.560807,0.613999,-2.093889
28698840947445,-9.569924,0.605339,-2.054384
28699035893734,-9.556844,0.787657,-2.053464
28699230809506,-9.557095,0.973054,-1.971166
28699425755795,-9.577507,1.043794,-1.830911
28699620671566,-9.589159,1.024812,-1.779935
28699815587338,-9.613779,1.090537,-1.598866
28700010533627,-9.660877,0.866840,-1.444450
28700205479916,-9.681273,0.735044,-1.379510
28700400365170,-9.650572,0.652054,-1.616065
28700595311459,-9.615742,0.619231,-1.823308
28700790257748,-9.609046,0.491024,-1.896187
28700985173519,-9.607516,0.291383,-1.944506
28701180089291,-9.625401,0.191907,-1.866878
28701375035580,-9.614964,-0.039505,-1.929068
28701569951351,-9.583793,-0.270624,-2.061085
28701764897640,-9.564862,-0.373076,-2.131809
28701959813412,-9.517451,-0.464121,-2.317994
28702154729183,-9.469696,-0.566616,-2.484790
28702349675472,-9.473153,-0.475219,-2.490772
28702544621761,-9.440156,-0.488862,-2.610528
28702739568050,-9.418693,-0.372001,-2.705595
28702934453304,-9.497781,-0.232593,-2.430729
28703129399593,-9.530807,-0.206810,-2.300288
28703324345882,-9.517311,-0.196724,-2.356367
28703519261654,-9.464917,-0.172682,-2.560453
28703714177425,-9.486109,-0.184267,-2.479956
28703909123715,-9.545234,-0.064149,-2.248284
28704104039486,-9.578631,-0.005181,-2.102422
28704298985775,-9.606219,0.205896,-1.961773
28704493901547,-9.592985,0.263754,-2.018777
28704688817318,-9.575405,0.327819,-2.091538
28704883763607,-9.522666,0.405557,-2.307540
28705078709896,-9.460805,0.530186,-2.526354
28705273625668,-9.511151,0.423760,-2.351342
28705468541439,-9.532615,0.314501,-2.280512
28705663487728,-9.465131,0.324103,-2.544925
28705858403500,-9.486092,0.230950,-2.476110
28706053349789,-9.509088,0.279969,-2.381020
28706248265560,-9.506182,0.303307,-2.389752
28706443181332,-9.512054,0.334258,-2.362092
28706638127621,-9.482017,0.396025,-2.470810
28706833073910,-9.484673,0.386395,-2.462126
28707027989681,-9.494607,0.385615,-2.423662
28707222905453,-9.506150,0.485442,-2.359629
28707417851742,-9.527731,0.555577,-2.254785
28707612798031,-9.522459,0.579401,-2.271001
28707807683285,-9.519730,0.593764,-2.278725
28708002629574,-9.509147,0.729822,-2.283393
28708197575863,-9.502610,0.697326,-2.320458
28708392491634,-9.469278,0.823644,-2.413452
28708587411330,-9.448450,0.924458,-2.458160
28708782357619,-9.433806,0.979445,-2.492866
28708977273390,-9.437880,1.068119,-2.440478
28709172219680,-9.433135,1.272246,-2.359609
28709367135451,-9.382676,1.419505,-2.474022
28709562051223,-9.345888,1.530129,-2.546266
28709756997512,-9.327367,1.721546,-2.491364
28709951913283,-9.327372,1.651873,-2.538082
28710146829055,-9.327477,1.674063,-2.523105
28710341775344,-9.364606,1.589158,-2.439082
28710536721633,-9.389154,1.493211,-2.405095
28710731606887,-9.388098,1.417320,-2.454629
28710926553176,-9.413902,1.322808,-2.408114
28711121499465,-9.419622,1.236361,-2.431566
28711316415236,-9.420378,1.186567,-2.453350
28711511361525,-9.443836,1.198231,-2.355546
28711706277297,-9.458109,1.201133,-2.296047
28711901223586,-9.458246,1.095381,-2.347789
28712096139357,-9.470863,1.071943,-2.307393
28712291055129,-9.483567,1.055636,-2.262297
28712486001418,-9.496409,1.031039,-2.219362
28712680917189,-9.489409,1.043173,-2.243496
28712875863478,-9.493916,1.044872,-2.223558
28713070779250,-9.499831,0.995410,-2.220979
28713265695021,-9.506278,0.833274,-2.259803
28713460641310,-9.528694,0.775107,-2.184854
28713655587599,-9.514696,0.759460,-2.250368
28713850472853,-9.557159,0.543480,-2.129724
28714045419142,-9.586742,0.578112,-1.982560
28714240365431,-9.566323,0.590378,-2.075400
28714435281203,-9.524749,0.512440,-2.277487
28714630196974,-9.545978,0.493286,-2.191204
28714825143264,-9.549445,0.435143,-2.188410
28715020059035,-9.514380,0.557078,-2.310114
28715214974806,-9.535602,0.625395,-2.202626
28715409921096,-9.575906,0.692238,-1.998305
28715604836867,-9.625884,0.727386,-1.727327
28715799783156,-9.638025,0.692493,-1.673113
28715994698928,-9.617484,0.614241,-1.815789
28716189645217,-9.585953,0.518003,-2.002891
28716384560988,-9.600266,0.427687,-1.955085
28716579507277,-9.621264,0.388557,-1.857609
28716774423049,-9.602702,0.572021,-1.905596
28716969338820,-9.596497,0.618788,-1.922174
28717164285109,-9.631031,0.590975,-1.750538
28717359231398,-9.639828,0.618056,-1.691776
28717554116652,-9.654060,0.735377,-1.558440
28717749062941,-9.646620,0.806914,-1.569073
28717944009230,-9.631263,0.901528,-1.611341
28718138925002,-9.655696,0.792572,-1.519786
28718333840773,-9.670852,0.641781,-1.494372
28718528863576,-9.647166,0.921587,-1.501078
28718723779348,-9.615621,1.144008,-1.549664
28718918725637,-9.648726,1.198223,-1.279343
28719113641408,-9.654191,1.118118,-1.310265
28719308557180,-9.650547,1.142866,-1.315746
28719503503469,-9.668603,0.976359,-1.317280
28719698449758,-9.666020,0.915224,-1.378694
28719893335012,-9.671582,0.846225,-1.383765
28720088281301,-9.654083,0.851690,-1.497900
28720283227590,-9.648876,0.839596,-1.537741
28720478173879,-9.650772,0.730152,-1.581093
28720673059133,-9.639712,0.619964,-1.691735
28720868005422,-9.639737,0.477997,-1.737061
28721062951711,-9.657698,0.280793,-1.679413
28721257867483,-9.631924,0.322391,-1.814525
28721452783254,-9.622128,0.429976,-1.843956
28721647729543,-9.609846,0.318380,-1.928700
28721842645315,-9.607091,0.283705,-1.947744
28722037591604,-9.603621,0.236966,-1.970959
28722232507375,-9.608296,0.298038,-1.939636
28722427423147,-9.585374,0.183184,-2.063353
28722622369436,-9.546919,0.271619,-2.225521
28722817315725,-9.537077,0.413201,-2.245846
28723012200979,-9.492835,0.396882,-2.428778
28723207147268,-9.448490,0.451511,-2.586997
28723402093557,-9.427381,0.550387,-2.644228
28723597009328,-9.401580,0.532389,-2.738110
28723791925100,-9.396690,0.501116,-2.760705
28723986871389,-9.436821,0.286059,-2.652348
28724181787160,-9.465995,0.147135,-2.558061
28724376702932,-9.462817,0.176908,-2.567913
28724571649221,-9.440172,0.347457,-2.633022
28724766595510,-9.428932,0.370566,-2.669889
28724961511281,-9.460443,0.426200,-2.547304
28725156427053,-9.496064,0.409123,-2.414077
28725351373342,-9.518273,0.506798,-2.305649
28725546289113,-9.514866,0.497822,-2.321615
28725741235403,-9.529101,0.542867,-2.252090
28725936151174,-9.542430,0.544246,-2.194591
28726131066945,-9.573534,0.483216,-2.069868
28726326013235,-9.611742,0.446023,-1.893642
28726520959524,-9.605290,0.392471,-1.937719
28726715844778,-9.614424,0.483348,-1.870730
28726910791067,-9.642729,0.535819,-1.703249
28727105737356,-9.663887,0.580352,-1.562970
28727300622610,-9.666982,0.753306,-1.467096
28727495568899,-9.670248,0.912067,-1.350863
28727690515188,-9.631397,0.961357,-1.575548
28727885430959,-9.495330,1.065385,-2.207731
28728080346731,-9.373305,1.290430,-2.578048
28728275293020,-9.434616,1.260723,-2.359869
28728470096245,-9.544530,0.991718,-2.022088
28728665042534,-9.585421,0.998483,-1.814693
28728859958306,-9.555200,1.214684,-1.842035
28729054874077,-9.485924,1.279045,-2.133469
28729249820366,-9.453438,1.272015,-2.277035
28729444736138,-9.434172,1.346715,-2.313688
28729639682427,-9.407200,1.367168,-2.409529
28729834598198,-9.376179,1.421742,-2.497265
28730029544487,-9.361404,1.433071,-2.545740
28730224460259,-9.342109,1.386981,-2.640392
28730419376030,-9.319858,1.391131,-2.715767
28730614322319,-9.327579,1.357613,-2.706204
28730809268608,-9.331298,1.350294,-2.697030
30439553742936,-1.114137,7.512300,6.204387
30439748658708,-0.725809,7.529902,6.240526
30439943543962,-0.626247,7.422433,6.378533
30440138459733,-0.538047,7.507287,6.286615
30440333344987,-0.430300,7.547566,6.246557
30440528260759,-0.125515,7.725595,6.039023
30440723176530,0.063676,7.796148,5.948648
