28610947838362,14.000000
28611353142317,12.000000
28611454491194,11.000000
28611859795149,12.000000
28611961082990,11.000000
28612163750227,12.000000
28612366386946,13.000000
28612974419172,14.000000
28613683678205,15.000000
28615406303938,16.000000
28615710289533,15.000000
28615912956770,14.000000
28616115593489,15.000000
28616318291242,16.000000
28616622276838,17.000000
28616825005110,20.000000
28617027672346,24.000000
28617230278547,29.000000
28617432976301,36.000000
28617635613020,48.000000
28617838280256,63.000000
28618040916975,64.000000
28618243614729,62.000000
28618547916270,64.000000
28618649234630,67.000000
28618851932384,69.000000
28618953281261,70.000000
28619459934093,79.000000
28619662631847,89.000000
28619865299083,112.000000
28619966617442,115.000000
28620270603038,114.000000
28620473270274,117.000000
28620675906993,95.000000
28620878574229,121.000000
28621081210948,134.000000
28621283878185,144.000000
28621385166026,147.000000
28621689182140,140.000000
28621790500499,137.000000
28622094547130,142.000000
28622195896007,143.000000
28622398593761,145.000000
28622702670909,149.000000
28623108005382,150.000000
28623614688731,152.000000
28623716007091,154.000000
28623918674327,144.000000
28624121341563,126.000000
28624324008800,118.000000
28624526676036,137.000000
28624729373790,134.000000
28624931979991,143.000000
28625134677745,149.000000
28625337344981,145.000000
28625539951183,126.000000
28625742648936,117.000000
28625945316173,124.000000
28626148013927,135.000000
28626350681163,145.000000
28626452060558,147.000000
28626756107188,141.000000
28626958774425,134.000000
28627161472179,125.000000
28627364169933,117.000000
28627566867686,115.000000
28627769534923,100.000000
28627870883800,98.000000
28628276248790,112.000000
28628377567149,113.000000
28628681271449,115.000000
28628782620326,99.000000
28629187954799,130.000000
28629390652553,143.000000
28629492001430,145.000000
28629796048061,137.000000
28629998745814,123.000000
28630302822963,120.000000
28630606869594,123.000000
28630708218471,128.000000
28630910946742,90.000000
28631012356654,81.000000
28631316433803,118.000000
28631519131557,145.000000
28631721859828,135.000000
28631924649135,132.000000
28632127346889,128.000000
28632330075160,123.000000
28632532772914,117.000000
28632735470668,112.000000
28632938168422,95.000000
28633140866176,85.000000
28633343563930,66.000000
28633546231166,56.000000
28633647580043,52.000000
28633951657191,50.000000
28634053006068,49.000000
28634357052699,50.000000
28634559780971,53.000000
28634762448207,54.000000
28634965115443,56.000000
28635167813197,60.000000
28635370510951,62.000000
28635573178188,57.000000
28635775875941,50.000000
28635978573695,58.000000
28636181271449,90.000000
28636383938686,175.000000
28636485318080,193.000000
28636687985316,190.000000
28636992062465,214.000000
28637194790736,217.000000
28637296170131,220.000000
28637600247279,212.000000
28637802945033,160.000000
28638005673305,96.000000
28638208432094,87.000000
28638411160365,91.000000
28638513336505,122.000000
28638716034259,145.000000
28638817413653,151.000000
28639121521319,185.000000
28639222870196,197.000000
28639526977862,213.000000
28639729645099,189.000000
28639932281817,145.000000
28640134979571,136.000000
28640337677325,139.000000
28640540405597,160.000000
28640743103350,183.000000
28640945740069,184.000000
28641148437823,164.000000
28641351135577,169.000000
28641452484454,173.000000
28641756561602,190.000000
28641959259356,216.000000
28642060577716,222.000000
28642364624347,220.000000
28642567322100,239.000000
28642770050372,215.000000
28642972748126,286.000000
28643175476397,359.000000
28643378174151,314.000000
28643580871905,299.000000
28643783569659,280.000000
28643986297931,259.000000
28644188965167,243.000000
28644391662921,254.000000
28644594391192,276.000000
28644797149981,288.000000
28644999817218,302.000000
28645202514972,313.000000
28645405243243,322.000000
28645607971515,339.000000
28645810638751,351.000000
28646216125811,331.000000
28646317474688,322.000000
28646520202960,298.000000
28646722900714,256.000000
28646925628985,225.000000
28647128418292,229.000000
28647331146563,231.000000
28647736603106,227.000000
28647837921466,220.000000
28648141998614,213.000000
28648243408526,216.000000
28648546781986,214.000000
28648749510257,202.000000
28648952208011,195.000000
28649154936283,182.000000
28649357695072,159.000000
28649560423343,134.000000
28649763182132,115.000000
28649965940921,96.000000
28650168699710,126.000000
28650371458500,157.000000
28650472837894,163.000000
28650776915043,121.000000
28650979612796,76.000000
28651182310550,74.000000
28651385008304,100.000000
28651587736576,87.000000
28651790434330,56.000000
28651891783207,51.000000
28652601255863,52.000000
28652803953617,61.000000
28653006620853,75.000000
28653209318607,89.000000
28653412016361,92.000000
28653614714115,113.000000
28653817350834,100.000000
28654020048587,115.000000
28654526762455,92.000000
28654729460209,88.000000
28654932157962,93.000000
28654932157962,93.000000
28654932157962,93.000000
28655134886234,81.000000
28655337614505,70.000000
28655540312259,52.000000
28655743040531,47.000000
28655945768802,46.000000
28656148436039,51.000000
28656351164310,47.000000
28656553831546,37.000000
28656756529300,32.000000
28656959227054,35.000000
28657161894291,32.000000
28657364592044,26.000000
28657567228763,24.000000
28657769926517,29.000000
28657972685306,30.000000
28658175352543,26.000000
28658378050296,27.000000
28658580734449,30.000000
28658986129957,27.000000
28659188858228,21.000000
28659391617017,20.000000
28659594314771,21.000000
28659797104078,23.000000
28660202560621,22.000000
28660303909498,21.000000
28660608017164,24.000000
28660709366041,26.000000
28661013412672,28.000000
28661216110425,27.000000
28661418808179,28.000000
28661621505933,32.000000
28662026931959,37.000000
28662229690748,49.000000
28662432357984,60.000000
28662635086256,66.000000
28662837814527,64.000000
28663040420728,61.000000
28663243057447,68.000000
28663445694166,89.000000
28663648391920,97.000000
28663851059156,112.000000
28664053695875,123.000000
28664155044752,121.000000
28664459030347,98.000000
28664661697584,97.000000
28664864364820,121.000000
28665067062574,143.000000
28665269699293,153.000000
28665472397047,149.000000
28665675125318,134.000000
28665877792554,141.000000
28666080459791,134.000000
28666283188062,115.000000
28666485855299,131.000000
28666688522535,194.000000
28666789871412,240.000000
28666992569166,316.000000
28667195266920,414.000000
28667296615797,427.000000
28667600692945,384.000000
28667803390699,313.000000
28668006088453,385.000000
28668208847242,523.000000
28668411514478,590.000000
28668614203537,535.000000
28668816931809,534.000000
28669120947922,509.000000
28669222296799,475.000000
28669425025070,404.000000
28669627722824,299.000000
28669830481613,233.000000
28670033209885,194.000000
28670235938156,177.000000
28670438635910,159.000000
28670641364182,160.000000
28670844122971,167.000000
28671046820725,156.000000
28671249579514,150.000000
28671553626145,149.000000
28671655005539,144.000000
28671857703293,133.000000
28672060431564,132.000000
28672263220871,121.000000
28672567328537,123.000000
28672668707932,128.000000
28672871436203,134.000000
28673074194992,131.000000
28673276923264,130.000000
28673378333176,131.000000
28673682471359,123.000000
28673783820236,120.000000
28674087897385,115.000000
28674290625656,112.000000
28674493384445,100.000000
28674696112717,113.000000
28674797522629,115.000000
28675101599777,96.000000
28675304297531,94.000000
28675608374680,90.000000
28675709754074,88.000000
28675912451828,94.000000
28676115149582,96.000000
28676317847336,100.000000
28676520575607,115.000000
28676723242844,123.000000
28676925971115,131.000000
28677128699387,153.000000
28677331397141,170.000000
28677534125412,202.000000
28677736914719,231.000000
28677939673508,261.000000
28678041052902,264.000000
28678243842209,271.000000
28678547980588,263.000000
28678750739377,264.000000
28678953498166,276.000000
28679156195920,293.000000
28679358954709,282.000000
28679561682980,274.000000
28679764411252,261.000000
28679967109006,243.000000
28680169837277,230.000000
28680372565549,220.000000
28680575263302,193.000000
28680777930539,163.000000
28680980658810,135.000000
28681183387082,132.000000
28681386054318,126.000000
28681588691037,123.000000
28681791419308,94.000000
28681892737668,81.000000
28682196845334,85.000000
28682399543088,74.000000
28682602271359,78.000000
28682804969113,89.000000
28683007697384,87.000000
28683210425656,123.000000
28683413123410,146.000000
28683514472287,153.000000
28683717231076,171.000000
28683818579953,165.000000
28684122687619,167.000000
28684325415890,155.000000
28684528174679,162.000000
28684730872433,128.000000
28684933631222,123.000000
28685136359494,174.000000
28685339026730,265.000000
28685541724484,288.000000
28685744483273,263.000000
28685947242062,213.000000
28686149909299,156.000000
28686352607052,83.000000
28686555304806,78.000000
28686758033078,64.000000
28686960700314,50.000000
28687163398068,35.000000
28687366126340,30.000000
28687568854611,26.000000
28687974280636,27.000000
28688176947873,35.000000
28688379615109,41.000000
28688582349867,43.000000
28688785017103,47.000000
28688987745374,44.000000
28689190443128,39.000000
28689393171400,50.000000
28689595838636,64.000000
28689798536390,70.000000
28690001264661,66.000000
28690203901380,75.000000
28690406629652,87.000000
28690507948011,90.000000
28690812055677,97.000000
28690913404554,116.000000
28691217451185,115.000000
28691318800062,100.000000
28691420179456,115.000000
28691724226087,125.000000
28691926923841,137.000000
28692129652113,174.000000
28692332380384,224.000000
28692535108656,234.000000
28692737806410,270.000000
28692940504163,292.000000
28693143201917,305.000000
28693244520277,318.000000
28693548536390,319.000000
28693751264661,330.000000
28693953992933,370.000000
28694156690687,364.000000
28694359418958,336.000000
28694562116712,351.000000
28694764814466,368.000000
28694967512220,383.000000
28695170240492,375.000000
28695271589368,380.000000
28695575635999,344.000000
28695778364271,346.000000
28695981062025,356.000000
28696183729261,343.000000
28696487775892,340.000000
28696690473646,330.000000
28696791792005,310.000000
28696893140882,302.000000
28697197156995,310.000000
28697399854749,309.000000
28697602491468,320.000000
28697703870863,328.000000
28698007948011,392.000000
28698210615247,444.000000
28698413313001,448.000000
28698616032894,490.000000
28698818730648,489.000000
28699021428402,505.000000
28699122807797,514.000000
28699426884945,493.000000
28699629552181,401.000000
28699832249935,439.000000
28700034978207,430.000000
28700237645443,454.000000
28700440343197,568.000000
28700643071468,589.000000
28700845769222,515.000000
28701048436459,479.000000
28701251164730,463.000000
28701453893002,459.000000
28701656590756,474.000000
28701859380062,593.000000
28702062138851,630.000000
28702264867123,582.000000
28702467625912,621.000000
28702670415218,515.000000
28702873204525,490.000000
28703075963314,531.000000
28703177342709,538.000000
28703481419857,576.000000
28703684178646,564.000000
28703886876400,487.000000
28704089604672,547.000000
28704190953549,528.000000
28704495061215,502.000000
28704596440609,509.000000
28704799138363,487.000000
28705001927670,503.000000
28705103307064,514.000000
28705306065853,502.000000
28705610204037,507.000000
28705812962826,529.000000
28706015752132,553.000000
28706218510922,587.000000
28706421300228,606.000000
28706928136166,614.000000
28707130894955,634.000000
28707232274349,650.000000
28707435033138,648.000000
28707637730892,616.000000
28707739140804,604.000000
28708144627865,593.000000
28708347356136,613.000000
28708448678420,618.000000
28708550088332,627.000000
28709056893752,621.000000
28709158273146,627.000000
28709259622023,621.000000
28709563729689,627.000000
28709766488478,650.000000
28709969216750,641.000000
28710172006056,572.000000
28710374764846,520.000000
28710577523635,490.000000
28710780251906,452.000000
28711185800002,447.000000
28711388528273,454.000000
28711591287062,449.000000
28711692666457,453.000000
28711895394728,465.000000
28712098153517,512.000000
28712300881789,452.000000
28712503640578,408.000000
28712706399367,402.000000
28712807748244,394.000000
28713111855910,376.000000
28713314584181,359.000000
28713517342971,371.000000
28713720132277,408.000000
28713922830031,460.000000
28714125558303,400.000000
28714328286574,403.000000
28714429665969,406.000000
28714632394240,396.000000
28714936440871,417.000000
28715037759230,437.000000
28715240487502,441.000000
28715544595168,448.000000
28715747353957,443.000000
28715950082228,401.000000
28716152841017,390.000000
28716355599806,381.000000
28716558358596,355.000000
28716761025832,322.000000
28716963754103,284.000000
28717166482375,232.000000
28717267831252,225.000000
28717571938918,262.000000
28717774667189,336.000000
28717977364943,402.000000
28718078744338,417.000000
28718382852004,415.000000
28718585656789,460.000000
28718788385061,452.000000
28718991113332,403.000000
28719193872121,409.000000
28719396600393,465.000000
28719497979787,545.000000
28719700677541,562.000000
28719903405813,534.000000
28720004785207,519.000000
28720207513479,530.000000
28720511590627,485.000000
28720714318899,449.000000
28720917077688,417.000000
28721119805959,421.000000
28721322534231,448.000000
28721525323537,440.000000
28721728082326,386.000000
28721930810598,359.000000
28722234918264,349.000000
28722336297658,368.000000
28722539056447,386.000000
28722741845754,390.000000
28722944604543,332.000000
28723147393850,300.000000
28723350122121,368.000000
28723552911428,467.000000
28723755670217,517.000000
28723958367971,500.000000
28724161096242,449.000000
28724363855031,471.000000
28724566552785,503.000000
28724870599416,489.000000
28724971948293,479.000000
28725174707082,442.000000
28725377404836,417.000000
28725580133108,422.000000
28725884240774,425.000000
28725985589651,421.000000
28726188348440,381.000000
28726391076711,362.000000
28726593804983,328.000000
28726796502737,322.000000
28726999231008,308.000000
28727201989797,284.000000
28727404687551,276.000000
28727607446340,310.000000
28727708795217,306.000000
28728012902883,324.000000
28728215600637,365.000000
28728418328908,359.000000
28728620944634,329.000000
28728823642388,340.000000
28729026370659,351.000000
28729229098931,369.000000
28729431796685,389.000000
28729533145562,396.000000
28729837222710,420.000000
28730039981499,448.000000
28730242679253,470.000000
28730445407524,522.000000
28730648135796,564.000000
28730850833550,553.000000
30439140107682,160.000000
30439442048600,135.000000
30439543275407,118.000000
30439745759538,123.000000
30439846986344,115.000000
30440150666764,141.000000
30440555635026,125.000000
30440758149675,81.000000
