28610733696516,69.048553,-161.500519,-71.096748
28610928642805,68.703003,-161.577835,-71.075424
28611123558576,68.711823,-161.276199,-71.159470
28611318474348,68.760406,-161.094681,-71.094818
28611513420637,68.746552,-160.883423,-71.017220
28611708305891,68.613861,-161.122147,-71.050659
28611903252180,68.474945,-161.370834,-71.086212
28612098198469,68.517517,-161.201279,-71.153755
28612293083723,68.592224,-161.166306,-71.051651
28612488030012,68.653137,-161.194672,-70.919678
28612682945783,68.710541,-161.061279,-70.930374
28612877861555,68.670898,-160.975372,-71.073730
28613072807844,68.694885,-160.901093,-71.094162
28613267723615,68.686157,-160.979904,-71.042793
28613462669905,68.514343,-161.366730,-71.020439
28613657555158,68.618408,-161.150085,-71.019051
28613852501448,68.560883,-161.235626,-71.048584
28614047417219,68.697845,-160.854172,-71.128700
28614242332990,68.614258,-160.983032,-71.167419
28614437279280,68.613129,-160.952454,-71.195274
28614632195051,68.406555,-161.453751,-71.136589
28614827110823,68.136475,-161.551468,-71.520828
28615022026594,67.901154,-161.578766,-71.590775
28615216972883,67.584015,-161.724686,-71.639503
28615411888655,67.104187,-161.907913,-71.685204
28615606804426,66.361877,-162.117661,-72.157188
28615801750715,66.226837,-162.123550,-72.361046
28615996635969,65.883301,-162.511215,-72.584305
28616191582258,65.507172,-163.042160,-72.741074
28616386528547,66.058960,-162.558975,-72.534256
28616581413801,66.827271,-161.659668,-72.337624
28616776360090,66.809021,-161.686295,-72.307983
28616971306379,66.144623,-162.586258,-72.240433
28617166191633,66.249817,-163.005066,-72.326538
28617361137922,67.387329,-162.578186,-72.238129
28617556053694,67.616669,-162.798279,-72.308617
28617750969465,68.088348,-163.392624,-72.241890
28617945915754,68.987183,-163.647049,-72.203911
28618140831526,69.911896,-163.918732,-72.181702
28618335777815,70.602051,-164.501297,-72.166069
28618530979015,71.229431,-165.038177,-71.940094
28618725925304,71.582611,-165.932678,-71.583603
28618920871593,73.092407,-165.515411,-71.593407
28619115756847,73.921265,-165.794113,-71.547981
28619310703136,74.540161,-165.903351,-71.522675
28619505649425,75.730042,-165.737015,-71.543236
28619700534679,76.264526,-166.045319,-71.393272
28619895480968,76.135651,-166.922485,-71.274406
28620090396739,76.742645,-167.057068,-71.416069
28620285312511,77.691284,-166.611328,-71.461784
28620480258800,78.434906,-166.329193,-71.250854
28620675174571,78.526337,-166.607239,-71.243584
28620870090343,79.047821,-166.316391,-71.246796
28621065006114,79.248535,-166.227173,-71.154984
28621259952403,79.229584,-166.450836,-71.067657
28621454868175,79.357391,-166.229614,-70.948578
28621649783946,79.248047,-166.273895,-71.023918
28621844730235,79.290405,-166.257492,-71.097954
28622039646007,80.068604,-165.474335,-71.177177
28622234561778,80.079163,-165.246582,-71.293854
28622429508067,80.729523,-164.607468,-71.421501
28622624423839,81.404724,-163.894043,-71.648148
28622819339610,82.015015,-163.158371,-71.728531
28623014285899,82.081146,-162.987289,-71.870125
28623209201671,81.897308,-163.129196,-72.015076
28623404117442,81.962646,-162.987625,-72.295906
28623599033214,82.010010,-162.808121,-72.492905
28623793979503,81.462402,-163.136261,-72.702431
28623988895274,81.514771,-163.118118,-72.842606
28624183811046,81.785126,-162.829269,-73.037827
28624378757335,81.930237,-162.820129,-73.310143
28624573673106,81.607056,-163.587128,-73.479485
28624768588878,81.953003,-163.717346,-73.688850
28624963535167,82.624725,-163.823486,-73.862114
28625158450938,84.166199,-163.075958,-73.857674
28625353366710,86.279907,-161.992691,-74.117355
28625548312999,86.749634,-162.650925,-74.454330
28625743198253,89.132385,-162.013168,-74.250175
28625938144542,92.281128,-160.218048,-73.909355
28626133090831,95.370728,-158.264648,-73.722130
28626327976085,98.160736,-156.738800,-73.129852
28626522922374,100.781494,-155.039886,-72.577057
28626717838145,102.415894,-154.451889,-72.665314
28626912784435,104.128845,-154.224457,-72.834999
28627107700206,105.436157,-154.623138,-72.764099
28627302615978,106.404358,-155.528687,-72.604912
28627497562267,106.988220,-156.872864,-72.649384
28627692447520,107.859070,-158.228226,-72.741783
28627887393810,107.412231,-160.767731,-72.621750
28628082340099,107.619843,-162.792267,-72.457970
28628277225353,108.807159,-163.792938,-72.395287
28628471829311,110.038696,-164.428574,-72.102142
28628666775600,110.853119,-165.154419,-71.805412
28628861660854,108.772766,-165.634415,-71.638397
28629056607143,106.674286,-166.353729,-71.532349
28629251522914,105.343842,-166.299179,-71.325630
28629446438686,103.866058,-166.386612,-71.162560
28629641384975,102.763550,-166.381760,-71.039726
28629836300746,103.028015,-165.968140,-71.188812
28630031216518,102.977295,-165.890427,-71.198273
28630226132289,102.238434,-165.364441,-71.191940
28630421078578,101.005371,-165.636368,-71.214478
28630615963832,101.128723,-163.673660,-71.197762
28630810910121,100.572693,-163.722122,-71.036850
28631005856410,100.447998,-163.809830,-70.857460
28631200772182,100.653656,-163.567734,-70.680000
28631395687953,100.319214,-163.534302,-70.458939
28631590634242,100.764191,-162.982697,-70.223061
28631785550014,101.341553,-162.773514,-69.977211
28631980465785,101.680115,-163.133698,-69.720001
28632175381557,102.404480,-163.505508,-69.344017
28632370327846,103.430725,-164.049652,-69.055923
28632565243617,105.089142,-164.450653,-68.626030
28632760159389,105.972992,-165.070618,-68.313736
28632955105678,105.718781,-167.052322,-68.127914
28633150021449,106.099518,-168.571625,-67.820709
28633344937221,106.814697,-169.139053,-67.667305
28633539883510,106.681061,-169.746262,-67.629013
28633734768764,106.099243,-170.852127,-68.225273
28633929715053,105.396698,-171.790466,-68.573097
28634124661342,105.203918,-172.414734,-68.039955
28634319546596,104.770081,-172.555862,-67.512054
28634514492885,104.643646,-172.451736,-67.572510
28634709408656,103.892365,-172.948776,-67.946404
28634904324428,103.278290,-173.605637,-68.307442
28635099270717,104.027802,-173.178833,-69.064133
28635294186488,104.488800,-172.547195,-69.286018
28635489102260,104.181763,-172.460831,-68.825310
28635684048549,104.491516,-172.149048,-68.476028
28635878964320,104.286163,-171.984833,-68.258652
28636073910609,104.721405,-171.442337,-68.211571
28636268795863,103.836517,-171.556900,-67.917900
28636463742152,103.119385,-171.832138,-67.898750
28636658688441,103.195465,-171.827469,-68.081055
28636853573695,102.678070,-171.554474,-68.070992
28637048519984,102.318909,-171.808212,-67.792603
28637243435756,103.006439,-171.342163,-67.840157
28637438351527,103.233521,-171.068054,-68.166100
28637633297816,103.816925,-170.396500,-68.751892
28637828213588,104.270203,-170.337097,-69.467239
28638023129359,106.617432,-167.779480,-70.000832
28638218075648,105.458618,-168.615356,-69.491425
28638413788165,106.553833,-168.740036,-68.643990
28638608703936,107.632019,-167.506851,-68.749153
28638803619708,108.101379,-167.588852,-68.934547
28638998565997,108.517151,-167.392273,-69.472366
28639193481768,110.133179,-166.251999,-69.786354
28639388397540,111.311005,-165.378815,-69.666237
28639583343829,109.771637,-166.730392,-70.006851
28639778259600,108.265686,-168.301361,-70.225342
28639973175372,108.920898,-167.951096,-70.042755
28640168121661,109.241150,-166.647995,-69.992577
28640363037433,108.783356,-166.530777,-70.660278
28640557953204,107.570557,-166.898865,-70.112091
28640752899493,109.946411,-165.752762,-69.659950
28640947815265,108.272400,-164.921249,-70.192711
28641142731036,107.306610,-166.277969,-70.529732
28641337677325,107.631226,-166.126572,-70.251160
28641532593097,107.489990,-165.957535,-70.105911
28641727508868,107.938843,-165.507874,-70.048820
28641922455157,106.859009,-166.718231,-70.486954
28642117370929,103.499023,-169.847626,-70.657204
28642312286700,104.485657,-170.612289,-69.560486
28642507232989,105.364471,-170.528870,-68.405746
28642702148761,103.388550,-171.782745,-68.007927
28642897064532,104.893127,-171.560699,-68.025574
28643092010821,108.063477,-169.081985,-67.467392
28643286926593,106.471832,-169.505142,-67.625069
28643481842364,107.545319,-168.805115,-69.435280
28643676788653,107.655029,-168.363617,-70.096680
28643871704425,107.798004,-168.475571,-70.198746
28644066620196,108.582764,-167.645065,-70.181679
28644261566485,110.131348,-166.078598,-69.838577
28644456482257,110.188690,-165.544144,-69.760490
28644651428546,109.694458,-165.592010,-69.908684
28644846344317,110.452545,-164.720261,-69.490746
28645041290606,108.960327,-165.808807,-68.544670
28645236206378,108.333435,-165.843811,-68.822617
28645431122149,107.656372,-166.579865,-69.844597
28645626068438,106.453369,-167.346725,-69.123451
28645820984210,106.881775,-167.527985,-68.863518
28646015899981,106.520630,-167.092636,-69.247650
28646210846270,106.118347,-167.555893,-69.282249
28646405792559,105.461975,-168.281021,-69.457657
28646600677813,104.876709,-168.812729,-69.447258
28646795624102,104.899475,-169.424484,-68.405952
28646990570392,104.894440,-169.791565,-67.811401
28647185455645,105.434265,-169.278931,-68.156593
28647380401934,107.017334,-169.122482,-67.745293
28647575348224,106.280273,-169.179947,-66.467201
28647770263995,106.409424,-169.852081,-66.854973
28647965179767,105.400757,-170.831451,-67.191574
28648160126056,105.097321,-172.077713,-66.893616
28648355041827,104.590454,-173.439789,-67.008476
28648549223392,105.914124,-173.521271,-67.477074
28648744139164,107.548645,-172.083282,-67.567650
28648939054935,110.085114,-170.787994,-67.932571
28649134001224,110.377441,-170.638260,-68.087036
28649328947513,113.128662,-168.516190,-68.123909
28649523863285,113.790771,-167.466904,-67.790543
28649718779056,116.417175,-165.949112,-67.667252
28649913725345,119.486786,-162.275238,-67.565750
28650108671634,121.720795,-159.493774,-67.746437
28650303556888,120.497528,-159.358200,-67.673378
28650498503177,121.196259,-158.743774,-67.403984
28650693449466,118.323761,-159.780090,-66.981003
28650888365238,117.419952,-160.485306,-67.647514
28651083281009,114.964386,-162.136551,-68.575134
28651278227298,112.781067,-164.297134,-68.326057
28651473143070,111.825806,-165.278000,-67.897720
28651668089359,111.002075,-166.296234,-67.505722
28651863035648,109.376160,-167.713608,-66.112076
28652057920902,107.655701,-169.904877,-65.660866
28652252867191,109.623535,-167.938217,-66.088463
28652447813480,110.377686,-166.773575,-65.223305
28652642729251,111.076447,-165.832703,-64.649040
28652837645023,108.523682,-166.447968,-64.691475
28653032591312,104.897125,-168.716949,-65.015816
28653227507084,102.162048,-171.365326,-63.996166
28653422453373,100.955780,-172.004440,-62.989765
28653617399662,99.748596,-172.742111,-61.768936
28653812315433,98.828369,-172.176758,-61.645420
28654202177494,97.198364,-172.335007,-60.422920
28654786955326,98.433838,-171.339233,-60.800262
28654786955326,98.433838,-171.339233,-60.800262
28654981901615,98.333282,-171.353409,-60.974136
28654981901615,98.333282,-171.353409,-60.974136
28654981901615,98.333282,-171.353409,-60.974136
28655176817386,97.759155,-171.442154,-61.647644
28655371763675,97.534790,-171.803421,-61.536259
28655566679447,98.635223,-170.243851,-60.451111
28655761595218,98.220032,-170.844482,-60.475876
28655956541507,98.666687,-170.316589,-61.233746
28656151487796,99.445404,-168.342087,-61.740395
28656346403568,99.990204,-167.753906,-62.232384
28656541319339,99.837402,-167.760818,-62.732952
28656736265628,99.454956,-168.302246,-62.591892
28656931181400,98.685822,-169.173599,-61.451542
28657126127689,97.688080,-171.136047,-62.394974
28657321073978,98.919586,-170.049393,-64.232224
28657515989750,98.405884,-170.243530,-63.952473
28657710905521,96.161499,-172.770248,-63.744892
28657905851810,94.385254,-175.124954,-63.385563
28658100798099,93.571533,-176.113724,-63.639923
28658295713871,93.483521,-176.254089,-64.194901
28658490616041,96.046661,-174.761902,-65.312088
28658685531812,98.928711,-171.461380,-66.133278
28658880447584,101.874542,-168.998489,-65.365410
28659075393873,102.843506,-167.899216,-64.401047
28659270340162,101.160278,-168.036255,-64.684669
28659465255933,99.915833,-169.547302,-65.178101
28659660171705,97.697205,-171.737717,-64.322258
28659855117994,99.650726,-170.787979,-63.348957
28660050033765,100.183258,-169.056198,-63.613979
28660244980054,100.587250,-168.717880,-64.303680
28660439926343,99.423340,-169.829254,-63.666519
28660634811597,96.634491,-171.026871,-64.611794
28660829757886,96.637817,-172.477173,-65.808243
28661024704175,96.839020,-171.768295,-64.892929
28661219619947,97.308105,-172.497818,-65.360123
28661414566236,98.025879,-171.918701,-66.380501
28661609482007,96.527039,-172.037537,-66.244362
28661804397779,99.446381,-170.011536,-66.248688
28661999344068,99.013885,-170.714020,-64.691490
28662194259840,99.225525,-169.572800,-63.906490
28662389206129,99.236298,-169.278290,-64.114128
28662584121900,99.316528,-169.073898,-63.465466
28662779068189,101.176605,-167.690582,-64.366669
28662974014478,101.677673,-166.705368,-65.502090
28663168899732,99.528564,-168.011032,-65.339409
28663363846021,97.422424,-169.409576,-65.041794
28663558792310,94.103027,-171.843567,-64.431404
28663753708082,92.171417,-172.484802,-63.825573
28663948654371,92.020996,-174.024887,-63.851818
28664143570142,89.559479,-174.474899,-64.501701
28664338485914,88.956024,-175.668808,-65.652107
28664533432203,84.042450,-178.384460,-64.154877
28664728378492,82.157715,-178.101868,-63.011375
28664923263746,79.542908,-177.842804,-62.311600
28665118210035,75.785522,-177.261612,-63.169250
28665313156324,73.678436,-176.011902,-63.751236
28665508072095,70.463104,-175.064468,-64.537613
28665703018384,65.581268,-176.294342,-65.037323
28665897934156,59.476135,-178.655655,-64.742783
28666092849927,55.415710,-179.798904,-64.941711
28666287796216,49.832733,178.074570,-65.622673
28666482742506,44.235413,175.736954,-65.091515
28666677627759,41.162537,174.605423,-64.041519
28666872574049,41.217468,176.578323,-64.069771
28667067520338,42.001251,178.347519,-64.658020
28667262466627,43.435638,-179.204620,-64.365013
28667457351881,45.842560,-177.351547,-64.111153
28667652298170,46.708862,-176.409897,-65.524994
28667847244459,46.500702,-176.451019,-67.205391
28668042160230,46.084625,-176.827805,-68.219528
28668237076002,47.279083,-176.311218,-68.754753
28668432013596,48.257904,-175.055191,-69.536026
28668626929367,49.007874,-174.864838,-70.416725
28668821875656,52.254730,-171.843842,-71.019112
28669016791428,54.372742,-169.845352,-70.901039
28669211707199,54.384949,-169.935822,-71.274773
28669406653488,53.363068,-171.800095,-72.631882
28669601599777,54.828552,-170.636551,-73.877052
28669796485031,53.324524,-172.170517,-73.668884
28669991431320,49.503510,-175.775574,-73.561295
28670186377609,50.613922,-174.900070,-74.023506
28670381293381,52.775574,-172.207870,-73.768219
28670576209152,50.451416,-173.418533,-73.187775
28670771155441,51.428925,-173.188080,-73.953506
28670966071213,54.364197,-169.677719,-74.300598
28671161017502,54.411194,-169.202545,-74.097832
28671355933273,54.755127,-169.161728,-74.317932
28671550879562,55.512909,-168.673981,-74.807831
28671745795334,47.938477,-176.258347,-75.608620
28671940741623,44.360718,179.530289,-75.994682
28672135657395,48.357269,-177.188141,-75.284332
28672330573166,51.615356,-173.657532,-74.824394
28672525519455,47.041138,-177.116364,-73.011589
28672720465744,47.403717,-177.518463,-72.834000
28672915381516,51.632996,-173.168762,-73.130997
28673110297287,52.297943,-171.999176,-73.261780
28673305243576,51.684509,-172.321732,-73.432625
28673500159348,53.137115,-171.297852,-73.990463
28673695105637,56.290222,-168.438751,-73.580070
28673890021408,58.180328,-166.775665,-73.404083
28674084937180,57.417450,-167.783524,-73.133545
28674279883469,58.214081,-167.529221,-72.703705
28674474829758,60.316132,-166.318893,-72.464958
28674669745529,60.773621,-166.014923,-71.826500
28674864661301,61.146820,-166.889786,-71.431389
28675059607590,63.060394,-165.502777,-72.371437
28675254523361,63.859161,-165.444550,-73.002258
28675449469650,63.237000,-166.373840,-71.191208
28675644385422,63.477509,-166.475174,-69.208740
28675839331711,65.301727,-165.356308,-70.583031
28676034247482,65.960632,-165.092270,-70.599648
28676229193771,66.797028,-164.564484,-69.643425
28676424109543,67.680603,-164.349640,-70.432838
28676619025314,69.086609,-163.529846,-71.186172
28676813971604,69.211731,-163.737961,-70.964432
28677008917893,70.300781,-163.756851,-71.024658
28677203803146,70.807098,-163.616882,-71.128494
28677398749436,72.770081,-163.251419,-70.980415
28677593695725,74.229004,-162.674484,-70.656540
28677788611496,77.675171,-161.497131,-70.803543
28677983527268,80.615265,-160.100128,-71.122559
28678178473557,84.946198,-158.685272,-70.873413
28678373389328,91.858429,-155.960388,-70.656006
28678568335812,96.495605,-155.074219,-70.599884
28678763251584,101.236938,-154.434814,-70.320015
28678958167355,105.532043,-154.011154,-69.506027
28679153113644,108.208069,-153.956833,-68.754555
28679348059933,111.799377,-154.156891,-69.055969
28679542945187,116.087646,-152.955963,-68.211990
28679737891476,119.820282,-151.586746,-66.824753
28679932837765,122.867767,-150.521759,-65.872787
28680127753537,123.052124,-152.039169,-64.778107
28680322669308,124.320068,-152.112000,-64.371597
28680517615597,124.858765,-151.749908,-65.353828
28680712561886,126.666656,-150.504715,-66.477684
28680907477658,126.618927,-151.354599,-66.252998
28681102393429,124.424957,-154.148499,-65.071503
28681297339718,121.495728,-156.517105,-64.390656
28681492255490,120.443481,-157.708603,-63.843067
28681687201779,119.346405,-158.195587,-63.213924
28681882117550,117.061523,-159.575974,-63.441696
28682077033322,116.034729,-159.723450,-63.200813
28682271979611,113.634125,-161.071182,-63.693523
28682466895382,114.796112,-160.675858,-64.676727
28682661811154,115.065796,-160.095428,-65.234222
28682856757443,114.188416,-161.666534,-65.145042
28683051703732,111.186646,-164.143936,-64.351105
28683246588986,111.447235,-164.867096,-64.538506
28683441535275,114.162750,-163.708557,-64.374611
28683636481564,116.642883,-161.365784,-63.512703
28683831366818,117.130615,-159.851379,-63.919437
28684026313107,115.556946,-160.434692,-64.694511
28684221259396,114.022949,-161.921585,-64.529404
28684416175168,113.166382,-162.358322,-65.174728
28684611090939,111.964081,-163.366318,-66.912590
28684806037228,110.473450,-165.584213,-66.604172
28685000983517,112.685852,-163.344788,-65.962761
28685195899289,113.561157,-163.886459,-65.883980
28685390815060,115.713684,-163.107758,-66.030685
28685585761349,116.486328,-161.684601,-66.275070
28685780677121,118.421509,-161.770660,-67.157967
28685975592892,119.427704,-159.095871,-66.896049
28686170539181,119.119415,-159.625549,-66.455818
28686365454953,118.237396,-160.211899,-66.072655
28686560401242,121.032410,-158.299377,-66.284981
28686755317013,121.466095,-156.723572,-65.546570
28686950232785,122.481079,-155.824722,-65.482872
28687145179074,122.195435,-155.220001,-66.455284
28687340125363,117.493469,-159.166519,-66.038628
28687535010617,116.959290,-159.830643,-65.011238
28687729956906,115.197205,-162.843781,-65.765785
28687924903195,118.263062,-158.590424,-65.808975
28688119818966,119.207886,-159.527557,-65.517036
28688314734738,120.708069,-157.598114,-65.680656
28688509687513,117.886963,-160.059525,-64.327072
28688704603285,119.434265,-158.835266,-63.372894
28688899549574,121.296173,-157.549835,-64.187981
28689094465345,119.193329,-157.820572,-65.073105
28689289411634,118.702271,-156.771561,-65.577652
28689484327406,119.835144,-156.232574,-67.706055
28689679273695,118.652161,-156.562485,-66.997566
28689874189466,112.589996,-161.078354,-66.551880
28690069105238,112.541077,-161.959869,-67.944290
28690264051527,110.859863,-162.801270,-68.398209
28690458997816,107.266296,-167.305878,-67.604149
28690653883070,105.614624,-169.149139,-68.224403
28690848829359,107.476044,-170.277191,-68.162300
28691043775648,109.679810,-169.799728,-68.123413
28691238691419,110.313599,-170.413773,-68.801903
28691433607191,111.647461,-171.120926,-68.734970
28691628553480,115.040680,-169.008163,-69.230164
28691823469251,115.097687,-168.695694,-69.516411
28692018415540,112.598907,-170.603638,-69.034348
28692213331312,111.693909,-172.854599,-68.942253
28692408247083,113.331268,-171.028763,-70.430656
28692603193372,116.109406,-170.444229,-69.749756
28692798139661,118.221161,-167.875549,-69.654366
28692993024915,117.508820,-167.581940,-70.702278
28693187971204,117.181458,-168.009689,-69.424126
28693382917493,115.421143,-169.282013,-69.297737
28693577863783,112.864044,-171.307953,-69.766083
28693772749036,113.267548,-171.570145,-69.518677
28693967695326,112.871368,-171.886368,-69.308304
28694162641615,111.058167,-172.976181,-69.347443
28694357557386,110.314758,-174.321106,-69.581810
28694552503675,111.207062,-174.854202,-69.957886
28694747419447,114.519379,-173.424500,-69.336060
28694942335218,116.441803,-171.896606,-69.319962
28695137281507,118.130707,-169.052261,-70.220184
28695332227796,119.695038,-166.569763,-71.009880
28695527113050,118.370178,-166.744873,-71.996651
28695722059339,117.972534,-166.379913,-72.113785
28695917005628,116.926636,-166.988358,-71.266953
28696111921400,115.611664,-167.155624,-72.076721
28696306837171,117.009552,-165.435974,-73.452652
28696501783460,117.638855,-163.672485,-72.897942
28696696699232,116.435608,-163.779114,-73.101395
28696891645521,114.512573,-164.431854,-74.878288
28697086561292,113.941101,-164.266800,-75.205986
28697281477064,110.781464,-166.563934,-75.213936
28697476423353,108.646667,-168.063995,-75.555122
28697671369642,105.587891,-169.988754,-75.801720
28697866285413,105.275208,-170.866684,-75.804993
28698061201185,107.462982,-168.969574,-75.336830
28698256147474,108.726227,-167.789886,-75.782738
28698451115902,111.920898,-165.235001,-76.523308
28698646031674,113.334900,-163.657089,-77.143631
28698840947445,114.175842,-163.582001,-77.385292
28699035893734,118.969727,-159.014450,-77.039993
28699230809506,124.897980,-153.727036,-77.046532
28699425755795,126.827271,-150.312744,-77.589775
28699620671566,126.234558,-150.068481,-77.910629
28699815587338,129.899658,-145.703323,-78.617821
28700010533627,122.678955,-149.031281,-80.108643
28700205479916,116.942749,-151.949982,-80.828293
28700400365170,109.097748,-158.026794,-79.764114
28700595311459,101.771027,-161.241516,-78.676079
28700790257748,94.226654,-165.481979,-78.478531
28700985173519,83.759521,-171.477676,-78.433907
28701180089291,78.461823,-174.130890,-78.967148
28701375035580,68.281799,178.826813,-78.652946
28701569951351,59.495697,172.519745,-77.761810
28701764897640,52.850861,170.073517,-77.250572
28701959813412,49.069977,168.677658,-76.050827
28702154729183,43.886780,167.154282,-74.936920
28702349675472,44.293518,169.198257,-75.014801
28702544621761,40.949890,169.393326,-74.286507
28702739568050,43.717957,172.171280,-73.829926
28702934453304,44.572968,174.534088,-75.581802
28703129399593,43.374084,174.862579,-76.378296
28703324345882,44.544983,175.227661,-76.047440
28703519261654,44.940704,176.141708,-74.829842
28703714177425,45.012787,175.750580,-75.310410
28703909123715,47.517639,178.365646,-76.740929
28704104039486,49.598267,179.858795,-77.620377
28704298985775,54.584290,-174.008514,-78.396141
28704493901547,56.501709,-172.556442,-78.017822
28704688817318,57.448700,-171.092178,-77.532761
28704883763607,58.640137,-170.031891,-76.177780
28705078709896,59.815765,-168.147781,-74.738297
28705273625668,57.927063,-169.783783,-75.898949
28705468541439,54.406647,-172.147995,-76.423210
28705663487728,53.137726,-172.742294,-74.834618
28705858403500,51.030945,-174.671371,-75.310013
28706053349789,51.403015,-173.293747,-75.849533
28706248265560,52.053802,-172.766693,-75.780243
28706443181332,52.083466,-171.945587,-75.920609
28706638127621,52.296478,-170.893997,-75.216438
28706833073910,51.376740,-171.080994,-75.277374
28707027989681,51.530304,-170.959763,-75.507492
28707222905453,54.753052,-168.374847,-75.779495
28707417851742,56.519257,-166.158096,-76.302200
28707612798031,58.207306,-165.687439,-76.172722
28707807683285,60.289398,-165.395264,-76.106140
28708002629574,64.809082,-162.274979,-75.850937
28708197575863,66.370575,-163.273834,-75.695549
28708392491634,70.739807,-161.156647,-74.927536
28708587411330,75.311523,-159.389847,-74.466446
28708782357619,78.909973,-158.550186,-74.150093
28708977273390,88.065094,-156.362549,-74.237480
28709172219680,98.314087,-151.667511,-74.135735
28709367135451,104.069824,-150.154327,-73.090759
28709562051223,109.637329,-148.997055,-72.366806
28709756997512,115.659332,-145.355316,-72.013016
28709951913283,115.785492,-146.942505,-72.013092
28710146829055,118.514160,-146.435989,-72.015114
28710341775344,119.162445,-146.914185,-72.731476
28710536721633,119.594574,-148.165802,-73.221390
28710731606887,118.089539,-149.997574,-73.200020
28710926553176,117.497375,-151.219437,-73.729736
28711121499465,116.138550,-153.048370,-73.849457
28711316415236,116.082214,-154.189194,-73.865334
28711511361525,117.572968,-153.038254,-74.366089
28711706277297,118.641174,-152.384552,-74.678589
28711901223586,116.264771,-154.988190,-74.681602
28712096139357,116.622406,-155.081894,-74.963181
28712291055129,117.531189,-154.985245,-75.251961
28712486001418,117.111084,-155.082047,-75.549637
28712680917189,117.828796,-155.062683,-75.386673
28712875863478,118.386536,-154.830719,-75.491364
28713070779250,118.065948,-155.858795,-75.629997
28713265695021,113.781372,-159.759186,-75.782562
28713460641310,113.979858,-160.467163,-76.325974
28713655587599,113.731079,-161.351349,-75.984215
28713850472853,111.236938,-165.684326,-77.048210
28714045419142,112.496368,-163.743378,-77.843391
28714240365431,113.565155,-164.120834,-77.289330
28714435281203,111.167450,-167.319489,-76.228806
28714630196974,111.811066,-167.313019,-76.759880
28714825143264,111.650452,-168.753998,-76.848633
28715020059035,115.155396,-166.442123,-75.976578
28715214974806,117.711365,-164.149078,-76.497765
28715409921096,120.411591,-160.893265,-77.546318
28715604836867,124.330902,-157.163803,-78.981926
28715799783156,123.485840,-157.515579,-79.359489
28715994698928,119.979248,-161.310455,-78.728050
28716189645217,116.191986,-165.499451,-77.821495
28716384560988,114.459167,-167.660583,-78.224487
28716579507277,114.273468,-168.185745,-78.841553
28716774423049,120.599487,-163.291306,-78.294418
28716969338820,121.431458,-162.155548,-78.117035
28717164285109,123.054688,-161.345505,-79.140396
28717359231398,124.089172,-159.931274,-79.416695
28717554116652,130.695007,-154.738892,-79.879417
28717749062941,134.241974,-152.784973,-79.634987
28717944009230,135.596436,-150.773453,-79.147591
28718138925002,133.068298,-152.457825,-79.933968
28718333840773,129.828003,-156.758148,-80.453842
28718528863576,140.507935,-148.452179,-79.652748
28718723779348,146.497498,-143.564148,-78.672493
28718918725637,152.307556,-136.875290,-79.703606
28719113641408,150.147583,-139.524139,-79.883781
28719308557180,150.793854,-139.022232,-79.763275
28719503503469,145.778381,-143.454391,-80.374977
28719698449758,143.890106,-146.422440,-80.285156
28719893335012,141.617920,-148.552643,-80.479614
28720088281301,142.033203,-150.377914,-79.880165
28720283227590,137.596680,-151.365753,-79.708511
28720478173879,132.773987,-155.212402,-79.770683
28720673059133,127.649994,-159.873825,-79.413017
28720868005422,121.650696,-164.614395,-79.413780
28721062951711,114.759857,-170.508087,-80.001076
28721257867483,116.643005,-169.925247,-79.168114
28721452783254,119.562927,-166.874252,-78.867676
28721647729543,113.550720,-170.626450,-78.501968
28721842645315,112.476624,-171.712677,-78.421494
28722037591604,111.052032,-173.144287,-78.320946
28722232507375,112.088989,-171.264450,-78.456657
28722427423147,107.443420,-174.926590,-77.805504
28722622369436,110.645508,-173.041611,-76.783928
28722817315725,113.421326,-169.575058,-76.534706
28723012200979,112.217957,-170.719421,-75.466194
28723207147268,111.609314,-170.099838,-74.467323
28723402093557,112.789459,-168.241974,-74.013237
28723597009328,112.417114,-168.996887,-73.474716
28723791925100,111.625214,-169.711838,-73.374565
28723986871389,105.232788,-173.844376,-74.214745
28724181787160,103.090698,-176.708084,-74.853928
28724376702932,104.786255,-176.059006,-74.783035
28724571649221,108.633179,-172.482605,-74.286858
28724766595510,108.166077,-172.098145,-74.046165
28724961511281,109.440491,-170.501602,-74.730278
28725156427053,109.084045,-170.381271,-75.541573
28725351373342,111.842468,-167.603134,-76.070755
28725546289113,112.193115,-167.897369,-75.988281
28725741235403,113.754395,-166.447388,-76.336037
28725936151174,114.348267,-166.071976,-76.669670
28726131066945,113.406036,-166.859497,-77.482193
28726326013235,114.870972,-166.746277,-78.557655
28726520959524,114.516418,-168.550049,-78.369194
28726715844778,119.405518,-165.513062,-78.636902
28726910791067,123.236084,-162.537109,-79.509377
28727105737356,127.524414,-159.629333,-80.211540
28727300622610,135.884888,-152.820999,-80.318512
28727495568899,142.478271,-145.973816,-80.432625
28727690515188,138.793335,-148.609573,-79.151794
28727885430959,134.790039,-154.239426,-75.524368
28728080346731,138.036438,-153.409958,-72.903526
28728275293020,135.894470,-151.887344,-74.167435
28728470096245,133.461823,-153.874710,-76.722992
28728665042534,139.405823,-151.179474,-77.806793
28728859958306,144.462799,-146.598145,-76.997223
28729054874077,140.888031,-149.056686,-75.306152
28729249820366,139.288269,-150.811066,-74.575623
28729444736138,140.310242,-149.797836,-74.157921
28729639682427,138.331177,-150.429413,-73.590553
28729834598198,138.245728,-150.346298,-72.960701
28730029544487,136.705048,-150.623581,-72.668587
28730224460259,133.586975,-152.287323,-72.294060
28730419376030,131.874634,-152.876541,-71.871483
28730614322319,130.655029,-153.358582,-72.017036
28730809268608,127.904785,-153.404739,-72.087547
30439748658708,125.104340,-50.349220,-4.244452
30439943543962,123.744629,-49.325596,-3.661366
30440138459733,123.429016,-50.057133,-3.145143
30440333344987,123.870789,-50.387985,-2.514853
30440528260759,126.033051,-51.985603,-0.733345
30440723176530,126.976471,-52.655499,0.372033
